Fri, 16 Oct 2020 08:36:00-run_all_case.py-run_all_case.py-[line:41]-INFO-[日志信息]: ==================================2020-10-16 08:36:00===================================
Fri, 16 Oct 2020 08:46:25-run_all_case.py-run_all_case.py-[line:41]-INFO-[日志信息]: ==================================2020-10-16 08:46:25===================================
Fri, 16 Oct 2020 08:46:48-run_all_case.py-test_login.py-[line:102]-INFO-[日志信息]: PC 端进行密码修改
Fri, 16 Oct 2020 08:47:02-run_all_case.py-test_login.py-[line:185]-INFO-[日志信息]: 登录页面
Fri, 16 Oct 2020 08:47:03-run_all_case.py-test_login.py-[line:190]-INFO-[日志信息]: 安全验证页面
Fri, 16 Oct 2020 08:48:08-run_all_case.py-test_login.py-[line:207]-INFO-[日志信息]: 重置密码页面
Fri, 16 Oct 2020 08:48:11-run_all_case.py-test_login.py-[line:104]-INFO-[日志信息]: 小程序个人实名认证页面
Fri, 16 Oct 2020 08:58:20-run_all_case.py-run_all_case.py-[line:41]-INFO-[日志信息]: ==================================2020-10-16 08:58:20===================================
Fri, 16 Oct 2020 08:58:42-run_all_case.py-test_login.py-[line:102]-INFO-[日志信息]: PC 端进行密码修改
Fri, 16 Oct 2020 08:58:52-run_all_case.py-test_login.py-[line:185]-INFO-[日志信息]: 登录页面
Fri, 16 Oct 2020 08:58:54-run_all_case.py-test_login.py-[line:190]-INFO-[日志信息]: 安全验证页面
Fri, 16 Oct 2020 08:59:58-run_all_case.py-test_login.py-[line:207]-INFO-[日志信息]: 重置密码页面
Fri, 16 Oct 2020 09:00:01-run_all_case.py-test_login.py-[line:104]-INFO-[日志信息]: 小程序个人实名认证页面
Fri, 16 Oct 2020 09:07:10-run_all_case.py-run_all_case.py-[line:41]-INFO-[日志信息]: ==================================2020-10-16 09:07:10===================================
Fri, 16 Oct 2020 09:07:38-run_all_case.py-test_login.py-[line:102]-INFO-[日志信息]: PC 端进行密码修改
Fri, 16 Oct 2020 09:07:48-run_all_case.py-test_login.py-[line:185]-INFO-[日志信息]: 登录页面
Fri, 16 Oct 2020 09:07:50-run_all_case.py-test_login.py-[line:190]-INFO-[日志信息]: 安全验证页面
Fri, 16 Oct 2020 09:08:59-run_all_case.py-test_login.py-[line:207]-INFO-[日志信息]: 重置密码页面
Fri, 16 Oct 2020 09:09:02-run_all_case.py-test_login.py-[line:104]-INFO-[日志信息]: 小程序个人实名认证页面
Fri, 16 Oct 2020 09:18:57-run_all_case.py-run_all_case.py-[line:41]-INFO-[日志信息]: ==================================2020-10-16 09:18:57===================================
Fri, 16 Oct 2020 09:19:19-run_all_case.py-test_login.py-[line:102]-INFO-[日志信息]: PC 端进行密码修改
Fri, 16 Oct 2020 09:19:29-run_all_case.py-test_login.py-[line:185]-INFO-[日志信息]: 登录页面
Fri, 16 Oct 2020 09:19:30-run_all_case.py-test_login.py-[line:190]-INFO-[日志信息]: 安全验证页面
Fri, 16 Oct 2020 09:19:32-run_all_case.py-test_login.py-[line:206]-INFO-[日志信息]: 重置密码页面
Fri, 16 Oct 2020 09:19:35-run_all_case.py-test_login.py-[line:104]-INFO-[日志信息]: 小程序个人实名认证页面
Fri, 16 Oct 2020 09:29:15-run_all_case.py-run_all_case.py-[line:41]-INFO-[日志信息]: ==================================2020-10-16 09:29:15===================================
Fri, 16 Oct 2020 09:29:35-run_all_case.py-test_login.py-[line:102]-INFO-[日志信息]: PC 端进行密码修改
Fri, 16 Oct 2020 09:29:45-run_all_case.py-test_login.py-[line:185]-INFO-[日志信息]: 登录页面
Fri, 16 Oct 2020 09:29:46-run_all_case.py-test_login.py-[line:190]-INFO-[日志信息]: 安全验证页面
Fri, 16 Oct 2020 09:29:48-run_all_case.py-test_login.py-[line:206]-INFO-[日志信息]: 重置密码页面
Fri, 16 Oct 2020 09:29:52-run_all_case.py-test_login.py-[line:104]-INFO-[日志信息]: 小程序个人实名认证页面
Fri, 16 Oct 2020 10:12:30-run_all_case.py-run_all_case.py-[line:41]-INFO-[日志信息]: ==================================2020-10-16 10:12:30===================================
Fri, 16 Oct 2020 10:12:54-run_all_case.py-test_login.py-[line:102]-INFO-[日志信息]: PC 端进行密码修改
Fri, 16 Oct 2020 10:13:06-run_all_case.py-test_login.py-[line:185]-INFO-[日志信息]: 登录页面
Fri, 16 Oct 2020 10:13:07-run_all_case.py-test_login.py-[line:190]-INFO-[日志信息]: 安全验证页面
Fri, 16 Oct 2020 10:13:09-run_all_case.py-test_login.py-[line:206]-INFO-[日志信息]: 重置密码页面
Fri, 16 Oct 2020 10:13:12-run_all_case.py-test_login.py-[line:104]-INFO-[日志信息]: 小程序个人实名认证页面
Fri, 16 Oct 2020 10:24:44-run_all_case.py-run_all_case.py-[line:41]-INFO-[日志信息]: ==================================2020-10-16 10:24:44===================================
Fri, 16 Oct 2020 10:25:07-run_all_case.py-test_login.py-[line:102]-INFO-[日志信息]: PC 端进行密码修改
Fri, 16 Oct 2020 10:25:17-run_all_case.py-test_login.py-[line:185]-INFO-[日志信息]: 登录页面
Fri, 16 Oct 2020 10:25:18-run_all_case.py-test_login.py-[line:190]-INFO-[日志信息]: 安全验证页面
Fri, 16 Oct 2020 10:25:19-run_all_case.py-test_login.py-[line:206]-INFO-[日志信息]: 重置密码页面
Fri, 16 Oct 2020 10:25:23-run_all_case.py-test_login.py-[line:104]-INFO-[日志信息]: 小程序个人实名认证页面
Fri, 16 Oct 2020 10:30:26-run_all_case.py-run_all_case.py-[line:41]-INFO-[日志信息]: ==================================2020-10-16 10:30:26===================================
Fri, 16 Oct 2020 10:30:47-run_all_case.py-test_login.py-[line:102]-INFO-[日志信息]: PC 端进行密码修改
Fri, 16 Oct 2020 10:30:57-run_all_case.py-test_login.py-[line:185]-INFO-[日志信息]: 登录页面
Fri, 16 Oct 2020 10:30:58-run_all_case.py-test_login.py-[line:190]-INFO-[日志信息]: 安全验证页面
Fri, 16 Oct 2020 10:31:00-run_all_case.py-test_login.py-[line:206]-INFO-[日志信息]: 重置密码页面
Fri, 16 Oct 2020 10:31:04-run_all_case.py-test_login.py-[line:104]-INFO-[日志信息]: 小程序个人实名认证页面
Fri, 16 Oct 2020 10:33:48-run_all_case.py-run_all_case.py-[line:41]-INFO-[日志信息]: ==================================2020-10-16 10:33:48===================================
Fri, 16 Oct 2020 10:33:56-run_all_case.py-test_businessInfoReg.py-[line:144]-INFO-[日志信息]: 企业认证画面
Fri, 16 Oct 2020 10:34:13-run_all_case.py-run_all_case.py-[line:41]-INFO-[日志信息]: ==================================2020-10-16 10:34:13===================================
Fri, 16 Oct 2020 10:34:36-run_all_case.py-test_login.py-[line:102]-INFO-[日志信息]: PC 端进行密码修改
Fri, 16 Oct 2020 10:34:46-run_all_case.py-test_login.py-[line:185]-INFO-[日志信息]: 登录页面
Fri, 16 Oct 2020 10:34:47-run_all_case.py-test_login.py-[line:190]-INFO-[日志信息]: 安全验证页面
Fri, 16 Oct 2020 10:34:49-run_all_case.py-test_login.py-[line:206]-INFO-[日志信息]: 重置密码页面
Fri, 16 Oct 2020 10:34:52-run_all_case.py-test_login.py-[line:104]-INFO-[日志信息]: 小程序个人实名认证页面
Fri, 16 Oct 2020 10:38:37-run_all_case.py-run_all_case.py-[line:41]-INFO-[日志信息]: ==================================2020-10-16 10:38:37===================================
Fri, 16 Oct 2020 10:38:59-run_all_case.py-test_login.py-[line:102]-INFO-[日志信息]: PC 端进行密码修改
Fri, 16 Oct 2020 10:39:09-run_all_case.py-test_login.py-[line:185]-INFO-[日志信息]: 登录页面
Fri, 16 Oct 2020 10:39:10-run_all_case.py-test_login.py-[line:190]-INFO-[日志信息]: 安全验证页面
Fri, 16 Oct 2020 10:39:12-run_all_case.py-test_login.py-[line:206]-INFO-[日志信息]: 重置密码页面
Fri, 16 Oct 2020 10:39:15-run_all_case.py-test_login.py-[line:104]-INFO-[日志信息]: 小程序个人实名认证页面
Fri, 16 Oct 2020 10:46:19-run_all_case.py-run_all_case.py-[line:41]-INFO-[日志信息]: ==================================2020-10-16 10:46:19===================================
Fri, 16 Oct 2020 10:46:42-run_all_case.py-test_login.py-[line:102]-INFO-[日志信息]: PC 端进行密码修改
Fri, 16 Oct 2020 10:46:52-run_all_case.py-test_login.py-[line:185]-INFO-[日志信息]: 登录页面
Fri, 16 Oct 2020 10:46:53-run_all_case.py-test_login.py-[line:190]-INFO-[日志信息]: 安全验证页面
Fri, 16 Oct 2020 10:46:55-run_all_case.py-test_login.py-[line:206]-INFO-[日志信息]: 重置密码页面
Fri, 16 Oct 2020 10:46:58-run_all_case.py-test_login.py-[line:104]-INFO-[日志信息]: 小程序个人实名认证页面
Fri, 16 Oct 2020 10:47:54-run_all_case.py-test_businessInfoReg.py-[line:144]-INFO-[日志信息]: 企业认证画面
Fri, 16 Oct 2020 10:53:44-run_all_case.py-run_all_case.py-[line:41]-INFO-[日志信息]: ==================================2020-10-16 10:53:44===================================
Fri, 16 Oct 2020 10:54:07-run_all_case.py-test_login.py-[line:102]-INFO-[日志信息]: PC 端进行密码修改
Fri, 16 Oct 2020 10:54:17-run_all_case.py-test_login.py-[line:185]-INFO-[日志信息]: 登录页面
Fri, 16 Oct 2020 10:54:18-run_all_case.py-test_login.py-[line:190]-INFO-[日志信息]: 安全验证页面
Fri, 16 Oct 2020 10:54:20-run_all_case.py-test_login.py-[line:206]-INFO-[日志信息]: 重置密码页面
Fri, 16 Oct 2020 10:54:23-run_all_case.py-test_login.py-[line:104]-INFO-[日志信息]: 小程序个人实名认证页面
Fri, 16 Oct 2020 10:55:09-run_all_case.py-test_businessInfoReg.py-[line:144]-INFO-[日志信息]: 企业认证画面
Fri, 16 Oct 2020 10:57:49-run_all_case.py-run_all_case.py-[line:41]-INFO-[日志信息]: ==================================2020-10-16 10:57:49===================================
Fri, 16 Oct 2020 10:58:11-run_all_case.py-test_login.py-[line:102]-INFO-[日志信息]: PC 端进行密码修改
Fri, 16 Oct 2020 10:58:21-run_all_case.py-test_login.py-[line:185]-INFO-[日志信息]: 登录页面
Fri, 16 Oct 2020 10:58:22-run_all_case.py-test_login.py-[line:190]-INFO-[日志信息]: 安全验证页面
Fri, 16 Oct 2020 10:58:24-run_all_case.py-test_login.py-[line:206]-INFO-[日志信息]: 重置密码页面
Fri, 16 Oct 2020 10:58:27-run_all_case.py-test_login.py-[line:104]-INFO-[日志信息]: 小程序个人实名认证页面
Fri, 16 Oct 2020 10:59:32-run_all_case.py-test_businessInfoReg.py-[line:144]-INFO-[日志信息]: 企业认证画面
Fri, 16 Oct 2020 10:59:38-run_all_case.py-test_backStage_examine.py-[line:24]-INFO-[日志信息]: 开始执行脚本test_backstage_examine:

Fri, 16 Oct 2020 11:01:54-run_all_case.py-run_all_case.py-[line:41]-INFO-[日志信息]: ==================================2020-10-16 11:01:54===================================
Fri, 16 Oct 2020 11:02:16-run_all_case.py-test_login.py-[line:102]-INFO-[日志信息]: PC 端进行密码修改
Fri, 16 Oct 2020 11:02:16-run_all_case.py-test_login.py-[line:104]-INFO-[日志信息]: 小程序个人实名认证页面
Fri, 16 Oct 2020 11:03:02-run_all_case.py-test_businessInfoReg.py-[line:144]-INFO-[日志信息]: 企业认证画面
Fri, 16 Oct 2020 11:06:20-run_all_case.py-run_all_case.py-[line:41]-INFO-[日志信息]: ==================================2020-10-16 11:06:20===================================
Fri, 16 Oct 2020 11:06:21-run_all_case.py-test_login.py-[line:56]-INFO-[日志信息]: 开始执行脚本test_companyRegister:

Fri, 16 Oct 2020 11:06:31-run_all_case.py-test_login.py-[line:63]-INFO-[日志信息]: 对已注册的账户进行删除操作
Fri, 16 Oct 2020 11:06:35-test_companyRegister-Assert.py-[line:124]-INFO-[日志信息]: except_result = actul_result, except_result is 中小微企业金融服务聚合平台, actul_result is 中小微企业金融服务聚合平台
Fri, 16 Oct 2020 11:06:35-run_all_case.py-test_login.py-[line:91]-INFO-[日志信息]: 注册成功，返回到登陆页面
Fri, 16 Oct 2020 11:06:38-run_all_case.py-test_personalInfoReg.py-[line:34]-INFO-[日志信息]: 开始执行脚本test_infoReg:

Fri, 16 Oct 2020 11:06:38-run_all_case.py-test_personalInfoReg.py-[line:38]-INFO-[日志信息]: 对个人信息企业信息进行删除操作
Fri, 16 Oct 2020 11:06:49-test_infoReg-Assert.py-[line:124]-INFO-[日志信息]: except_result = actul_result, except_result is 首页, actul_result is 首页
Fri, 16 Oct 2020 11:06:49-run_all_case.py-test_personalInfoReg.py-[line:52]-INFO-[日志信息]: 进入登陆页面
Fri, 16 Oct 2020 11:06:54-test_infoReg-Assert.py-[line:124]-INFO-[日志信息]: except_result = actul_result, except_result is 实名认证, actul_result is 实名认证
Fri, 16 Oct 2020 11:06:54-run_all_case.py-test_personalInfoReg.py-[line:58]-INFO-[日志信息]: 实名认证画面成功显示
Fri, 16 Oct 2020 11:06:56-run_all_case.py-test_businessInfoReg.py-[line:36]-INFO-[日志信息]: 开始执行脚本test_businessInforReg:

Fri, 16 Oct 2020 11:07:26-run_all_case.py-test_backStage_examine.py-[line:24]-INFO-[日志信息]: 开始执行脚本test_backstage_examine:

Fri, 16 Oct 2020 11:09:33-run_all_case.py-run_all_case.py-[line:41]-INFO-[日志信息]: ==================================2020-10-16 11:09:33===================================
Fri, 16 Oct 2020 11:09:33-run_all_case.py-test_login.py-[line:56]-INFO-[日志信息]: 开始执行脚本test_companyRegister:

Fri, 16 Oct 2020 11:09:43-run_all_case.py-test_login.py-[line:63]-INFO-[日志信息]: 对已注册的账户进行删除操作
Fri, 16 Oct 2020 11:09:47-test_companyRegister-Assert.py-[line:124]-INFO-[日志信息]: except_result = actul_result, except_result is 中小微企业金融服务聚合平台, actul_result is 中小微企业金融服务聚合平台
Fri, 16 Oct 2020 11:09:47-run_all_case.py-test_login.py-[line:91]-INFO-[日志信息]: 注册成功，返回到登陆页面
Fri, 16 Oct 2020 11:09:51-run_all_case.py-test_personalInfoReg.py-[line:34]-INFO-[日志信息]: 开始执行脚本test_infoReg:

Fri, 16 Oct 2020 11:09:51-run_all_case.py-test_personalInfoReg.py-[line:38]-INFO-[日志信息]: 对个人信息企业信息进行删除操作
Fri, 16 Oct 2020 11:10:02-test_infoReg-Assert.py-[line:124]-INFO-[日志信息]: except_result = actul_result, except_result is 首页, actul_result is 首页
Fri, 16 Oct 2020 11:10:02-run_all_case.py-test_personalInfoReg.py-[line:52]-INFO-[日志信息]: 进入登陆页面
Fri, 16 Oct 2020 11:10:03-test_infoReg-Assert.py-[line:124]-INFO-[日志信息]: except_result = actul_result, except_result is 实名认证, actul_result is 实名认证
Fri, 16 Oct 2020 11:10:03-run_all_case.py-test_personalInfoReg.py-[line:58]-INFO-[日志信息]: 实名认证画面成功显示
Fri, 16 Oct 2020 11:10:05-run_all_case.py-test_businessInfoReg.py-[line:36]-INFO-[日志信息]: 开始执行脚本test_businessInforReg:

Fri, 16 Oct 2020 11:10:25-run_all_case.py-test_backStage_examine.py-[line:24]-INFO-[日志信息]: 开始执行脚本test_backstage_examine:

Fri, 16 Oct 2020 11:10:33-run_all_case.py-run_all_case.py-[line:41]-INFO-[日志信息]: ==================================2020-10-16 11:10:33===================================
Fri, 16 Oct 2020 11:10:34-run_all_case.py-test_login.py-[line:56]-INFO-[日志信息]: 开始执行脚本test_companyRegister:

Fri, 16 Oct 2020 11:10:44-run_all_case.py-test_login.py-[line:63]-INFO-[日志信息]: 对已注册的账户进行删除操作
Fri, 16 Oct 2020 11:10:48-test_companyRegister-Assert.py-[line:124]-INFO-[日志信息]: except_result = actul_result, except_result is 中小微企业金融服务聚合平台, actul_result is 中小微企业金融服务聚合平台
Fri, 16 Oct 2020 11:10:48-run_all_case.py-test_login.py-[line:91]-INFO-[日志信息]: 注册成功，返回到登陆页面
Fri, 16 Oct 2020 11:10:51-run_all_case.py-test_personalInfoReg.py-[line:34]-INFO-[日志信息]: 开始执行脚本test_infoReg:

Fri, 16 Oct 2020 11:10:51-run_all_case.py-test_personalInfoReg.py-[line:38]-INFO-[日志信息]: 对个人信息企业信息进行删除操作
Fri, 16 Oct 2020 11:11:03-test_infoReg-Assert.py-[line:124]-INFO-[日志信息]: except_result = actul_result, except_result is 首页, actul_result is 首页
Fri, 16 Oct 2020 11:11:03-run_all_case.py-test_personalInfoReg.py-[line:52]-INFO-[日志信息]: 进入登陆页面
Fri, 16 Oct 2020 11:11:04-test_infoReg-Assert.py-[line:124]-INFO-[日志信息]: except_result = actul_result, except_result is 实名认证, actul_result is 实名认证
Fri, 16 Oct 2020 11:11:04-run_all_case.py-test_personalInfoReg.py-[line:58]-INFO-[日志信息]: 实名认证画面成功显示
Fri, 16 Oct 2020 11:11:06-test_infoReg-Assert.py-[line:124]-INFO-[日志信息]: except_result = actul_result, except_result is 认证中, actul_result is 认证中
Fri, 16 Oct 2020 11:11:06-run_all_case.py-test_personalInfoReg.py-[line:96]-INFO-[日志信息]: 实名认证中画面显示
Fri, 16 Oct 2020 11:11:06-test_infoReg-Assert.py-[line:124]-INFO-[日志信息]: except_result = actul_result, except_result is 马化腾, actul_result is 马化腾
Fri, 16 Oct 2020 11:11:06-test_infoReg-Assert.py-[line:124]-INFO-[日志信息]: except_result = actul_result, except_result is 11010119900307475X, actul_result is 11010119900307475X
Fri, 16 Oct 2020 11:11:06-test_infoReg-Assert.py-[line:124]-INFO-[日志信息]: except_result = actul_result, except_result is 17082238021, actul_result is 17082238021
Fri, 16 Oct 2020 11:31:07-run_all_case.py-test_businessInfoReg.py-[line:36]-INFO-[日志信息]: 开始执行脚本test_businessInforReg:

Fri, 16 Oct 2020 11:31:49-run_all_case.py-test_backStage_examine.py-[line:24]-INFO-[日志信息]: 开始执行脚本test_backstage_examine:

Fri, 16 Oct 2020 11:32:00-run_all_case.py-test_backStage_examine.py-[line:74]-INFO-[日志信息]: 成功登录后台系统
Fri, 16 Oct 2020 11:32:05-test_backstage_examine-Assert.py-[line:124]-INFO-[日志信息]: except_result = actul_result, except_result is 用户基本信息, actul_result is 用户基本信息
Fri, 16 Oct 2020 11:32:05-run_all_case.py-test_backStage_examine.py-[line:54]-INFO-[日志信息]: 成功进入企业信息审核画面
Fri, 16 Oct 2020 11:32:05-run_all_case.py-test_backStage_authentication.py-[line:173]-INFO-[日志信息]: 开始执行脚本test_backStageActCreate:

Fri, 16 Oct 2020 11:32:16-run_all_case.py-test_backStage_examine.py-[line:74]-INFO-[日志信息]: 成功登录后台系统
Fri, 16 Oct 2020 11:32:16-run_all_case.py-test_backStage_authentication.py-[line:183]-INFO-[日志信息]: 机构信息DB删除
Fri, 16 Oct 2020 11:32:32-run_all_case.py-test_backStage_authentication.py-[line:341]-INFO-[日志信息]: 进入担保公司创建页面
Fri, 16 Oct 2020 11:32:36-run_all_case.py-test_backStage_authentication.py-[line:339]-INFO-[日志信息]: 进入银行账户创建页面
Fri, 16 Oct 2020 11:32:40-run_all_case.py-test_backStage_authentication.py-[line:278]-INFO-[日志信息]: 开始执行脚本test_backStage_authentication:

Fri, 16 Oct 2020 11:32:40-run_all_case.py-test_backStage_authentication.py-[line:281]-INFO-[日志信息]: 开始执行脚本test_backStage_authentication:

Fri, 16 Oct 2020 11:32:54-run_all_case.py-test_login.py-[line:170]-INFO-[日志信息]: 成功进入到密码重置页面
Fri, 16 Oct 2020 11:32:57-run_all_case.py-test_login.py-[line:177]-INFO-[日志信息]: 成功进入到密码修改完成页面
Fri, 16 Oct 2020 11:33:01-run_all_case.py-test_login.py-[line:170]-INFO-[日志信息]: 成功进入到密码重置页面
Fri, 16 Oct 2020 11:33:03-run_all_case.py-test_login.py-[line:177]-INFO-[日志信息]: 成功进入到密码修改完成页面
Fri, 16 Oct 2020 11:33:04-run_all_case.py-test_backStage_examine.py-[line:74]-INFO-[日志信息]: 成功登录后台系统
Fri, 16 Oct 2020 11:33:10-run_all_case.py-test_backStage_authentication.py-[line:236]-INFO-[日志信息]: 企业信息认证
Fri, 16 Oct 2020 11:33:12-run_all_case.py-test_backStage_authentication.py-[line:253]-INFO-[日志信息]: 协议内容确认页面
Fri, 16 Oct 2020 11:33:14-run_all_case.py-test_Tripartite_interaction.py-[line:138]-INFO-[日志信息]: 开始执行脚本test_Tripartite_interaction:

Fri, 16 Oct 2020 11:33:24-run_all_case.py-test_Tripartite_interaction.py-[line:145]-INFO-[日志信息]: 前端账户登录授信申请
Fri, 16 Oct 2020 11:33:26-run_all_case.py-test_Tripartite_interaction.py-[line:216]-INFO-[日志信息]: 进入到前端首页
Fri, 16 Oct 2020 11:33:26-run_all_case.py-test_Tripartite_interaction.py-[line:219]-INFO-[日志信息]: 进入到前端进入产品选择首页
Fri, 16 Oct 2020 11:33:28-run_all_case.py-test_Tripartite_interaction.py-[line:224]-INFO-[日志信息]: 进入到前端进入产品详情页
Fri, 16 Oct 2020 12:43:15-run_all_case.py-run_all_case.py-[line:41]-INFO-[日志信息]: ==================================2020-10-16 12:43:15===================================
Fri, 16 Oct 2020 12:43:16-run_all_case.py-test_login.py-[line:56]-INFO-[日志信息]: 开始执行脚本test_companyRegister:

Fri, 16 Oct 2020 12:43:42-run_all_case.py-run_all_case.py-[line:41]-INFO-[日志信息]: ==================================2020-10-16 12:43:42===================================
Fri, 16 Oct 2020 12:44:06-run_all_case.py-test_login.py-[line:102]-INFO-[日志信息]: PC 端进行密码修改
Fri, 16 Oct 2020 12:44:06-run_all_case.py-test_login.py-[line:104]-INFO-[日志信息]: 小程序个人实名认证页面
Fri, 16 Oct 2020 12:45:05-run_all_case.py-test_businessInfoReg.py-[line:144]-INFO-[日志信息]: 企业认证画面
Fri, 16 Oct 2020 12:46:09-run_all_case.py-run_all_case.py-[line:41]-INFO-[日志信息]: ==================================2020-10-16 12:46:09===================================
Fri, 16 Oct 2020 12:46:31-run_all_case.py-test_login.py-[line:102]-INFO-[日志信息]: PC 端进行密码修改
Fri, 16 Oct 2020 12:46:31-run_all_case.py-test_login.py-[line:104]-INFO-[日志信息]: 小程序个人实名认证页面
Fri, 16 Oct 2020 12:48:03-run_all_case.py-test_businessInfoReg.py-[line:144]-INFO-[日志信息]: 企业认证画面
Fri, 16 Oct 2020 12:49:53-run_all_case.py-run_all_case.py-[line:41]-INFO-[日志信息]: ==================================2020-10-16 12:49:53===================================
Fri, 16 Oct 2020 12:49:53-run_all_case.py-test_login.py-[line:56]-INFO-[日志信息]: 开始执行脚本test_companyRegister:

Fri, 16 Oct 2020 12:50:03-run_all_case.py-test_login.py-[line:63]-INFO-[日志信息]: 对已注册的账户进行删除操作
Fri, 16 Oct 2020 12:50:07-test_companyRegister-Assert.py-[line:124]-INFO-[日志信息]: except_result = actul_result, except_result is 中小微企业金融服务聚合平台, actul_result is 中小微企业金融服务聚合平台
Fri, 16 Oct 2020 12:50:07-run_all_case.py-test_login.py-[line:91]-INFO-[日志信息]: 注册成功，返回到登陆页面
Fri, 16 Oct 2020 12:50:11-run_all_case.py-test_personalInfoReg.py-[line:34]-INFO-[日志信息]: 开始执行脚本test_infoReg:

Fri, 16 Oct 2020 12:50:11-run_all_case.py-test_personalInfoReg.py-[line:38]-INFO-[日志信息]: 对个人信息企业信息进行删除操作
Fri, 16 Oct 2020 12:50:22-test_infoReg-Assert.py-[line:124]-INFO-[日志信息]: except_result = actul_result, except_result is 首页, actul_result is 首页
Fri, 16 Oct 2020 12:50:22-run_all_case.py-test_personalInfoReg.py-[line:52]-INFO-[日志信息]: 进入登陆页面
Fri, 16 Oct 2020 12:50:23-test_infoReg-Assert.py-[line:124]-INFO-[日志信息]: except_result = actul_result, except_result is 实名认证, actul_result is 实名认证
Fri, 16 Oct 2020 12:50:23-run_all_case.py-test_personalInfoReg.py-[line:58]-INFO-[日志信息]: 实名认证画面成功显示
Fri, 16 Oct 2020 12:50:27-test_infoReg-Assert.py-[line:124]-INFO-[日志信息]: except_result = actul_result, except_result is 认证中, actul_result is 认证中
Fri, 16 Oct 2020 12:50:27-run_all_case.py-test_personalInfoReg.py-[line:96]-INFO-[日志信息]: 实名认证中画面显示
Fri, 16 Oct 2020 12:50:27-test_infoReg-Assert.py-[line:124]-INFO-[日志信息]: except_result = actul_result, except_result is 马化腾, actul_result is 马化腾
Fri, 16 Oct 2020 12:50:27-test_infoReg-Assert.py-[line:124]-INFO-[日志信息]: except_result = actul_result, except_result is 11010119900307475X, actul_result is 11010119900307475X
Fri, 16 Oct 2020 12:50:27-test_infoReg-Assert.py-[line:124]-INFO-[日志信息]: except_result = actul_result, except_result is 17082238021, actul_result is 17082238021
Fri, 16 Oct 2020 12:51:16-test_infoReg-Assert.py-[line:124]-INFO-[日志信息]: except_result = actul_result, except_result is 认证成功, actul_result is 认证成功
Fri, 16 Oct 2020 12:51:16-run_all_case.py-test_personalInfoReg.py-[line:110]-INFO-[日志信息]: 实名认证成功画面显示
Fri, 16 Oct 2020 12:51:16-test_infoReg-Assert.py-[line:124]-INFO-[日志信息]: except_result = actul_result, except_result is 实名认证, actul_result is 实名认证
Fri, 16 Oct 2020 12:51:16-run_all_case.py-test_personalInfoReg.py-[line:115]-INFO-[日志信息]: 点击查看认证信息按钮，跳转到实名认证画面
Fri, 16 Oct 2020 12:51:19-run_all_case.py-test_businessInfoReg.py-[line:36]-INFO-[日志信息]: 开始执行脚本test_businessInforReg:

Fri, 16 Oct 2020 12:51:58-run_all_case.py-run_all_case.py-[line:41]-INFO-[日志信息]: ==================================2020-10-16 12:51:58===================================
Fri, 16 Oct 2020 12:51:59-run_all_case.py-test_login.py-[line:56]-INFO-[日志信息]: 开始执行脚本test_companyRegister:

Fri, 16 Oct 2020 12:52:09-run_all_case.py-test_login.py-[line:63]-INFO-[日志信息]: 对已注册的账户进行删除操作
Fri, 16 Oct 2020 12:52:13-test_companyRegister-Assert.py-[line:124]-INFO-[日志信息]: except_result = actul_result, except_result is 中小微企业金融服务聚合平台, actul_result is 中小微企业金融服务聚合平台
Fri, 16 Oct 2020 12:52:13-run_all_case.py-test_login.py-[line:91]-INFO-[日志信息]: 注册成功，返回到登陆页面
Fri, 16 Oct 2020 12:52:16-run_all_case.py-test_personalInfoReg.py-[line:34]-INFO-[日志信息]: 开始执行脚本test_infoReg:

Fri, 16 Oct 2020 12:52:16-run_all_case.py-test_personalInfoReg.py-[line:38]-INFO-[日志信息]: 对个人信息企业信息进行删除操作
Fri, 16 Oct 2020 12:52:28-test_infoReg-Assert.py-[line:124]-INFO-[日志信息]: except_result = actul_result, except_result is 首页, actul_result is 首页
Fri, 16 Oct 2020 12:52:28-run_all_case.py-test_personalInfoReg.py-[line:52]-INFO-[日志信息]: 进入登陆页面
Fri, 16 Oct 2020 12:52:29-test_infoReg-Assert.py-[line:124]-INFO-[日志信息]: except_result = actul_result, except_result is 实名认证, actul_result is 实名认证
Fri, 16 Oct 2020 12:52:29-run_all_case.py-test_personalInfoReg.py-[line:58]-INFO-[日志信息]: 实名认证画面成功显示
Fri, 16 Oct 2020 12:52:48-test_infoReg-Assert.py-[line:124]-INFO-[日志信息]: except_result = actul_result, except_result is 认证中, actul_result is 认证中
Fri, 16 Oct 2020 12:52:48-run_all_case.py-test_personalInfoReg.py-[line:96]-INFO-[日志信息]: 实名认证中画面显示
Fri, 16 Oct 2020 12:52:48-test_infoReg-Assert.py-[line:124]-INFO-[日志信息]: except_result = actul_result, except_result is 马化腾, actul_result is 马化腾
Fri, 16 Oct 2020 12:52:48-test_infoReg-Assert.py-[line:124]-INFO-[日志信息]: except_result = actul_result, except_result is 11010119900307475X, actul_result is 11010119900307475X
Fri, 16 Oct 2020 12:52:48-test_infoReg-Assert.py-[line:124]-INFO-[日志信息]: except_result = actul_result, except_result is 17082238021, actul_result is 17082238021
Fri, 16 Oct 2020 12:52:52-test_infoReg-Assert.py-[line:124]-INFO-[日志信息]: except_result = actul_result, except_result is 认证成功, actul_result is 认证成功
Fri, 16 Oct 2020 12:52:52-run_all_case.py-test_personalInfoReg.py-[line:110]-INFO-[日志信息]: 实名认证成功画面显示
Fri, 16 Oct 2020 12:52:52-test_infoReg-Assert.py-[line:124]-INFO-[日志信息]: except_result = actul_result, except_result is 实名认证, actul_result is 实名认证
Fri, 16 Oct 2020 12:52:52-run_all_case.py-test_personalInfoReg.py-[line:115]-INFO-[日志信息]: 点击查看认证信息按钮，跳转到实名认证画面
Fri, 16 Oct 2020 12:52:54-run_all_case.py-test_businessInfoReg.py-[line:36]-INFO-[日志信息]: 开始执行脚本test_businessInforReg:

Fri, 16 Oct 2020 12:53:05-test_businessInforReg-Assert.py-[line:124]-INFO-[日志信息]: except_result = actul_result, except_result is 企业基本资料, actul_result is 企业基本资料
Fri, 16 Oct 2020 12:53:05-run_all_case.py-test_businessInfoReg.py-[line:47]-INFO-[日志信息]: 企业基本资料画面正常显示
Fri, 16 Oct 2020 12:53:36-run_all_case.py-test_backStage_examine.py-[line:24]-INFO-[日志信息]: 开始执行脚本test_backstage_examine:

Fri, 16 Oct 2020 12:54:48-run_all_case.py-run_all_case.py-[line:41]-INFO-[日志信息]: ==================================2020-10-16 12:54:48===================================
Fri, 16 Oct 2020 12:54:48-run_all_case.py-test_login.py-[line:56]-INFO-[日志信息]: 开始执行脚本test_companyRegister:

Fri, 16 Oct 2020 12:54:58-run_all_case.py-test_login.py-[line:63]-INFO-[日志信息]: 对已注册的账户进行删除操作
Fri, 16 Oct 2020 12:55:02-test_companyRegister-Assert.py-[line:124]-INFO-[日志信息]: except_result = actul_result, except_result is 中小微企业金融服务聚合平台, actul_result is 中小微企业金融服务聚合平台
Fri, 16 Oct 2020 12:55:02-run_all_case.py-test_login.py-[line:91]-INFO-[日志信息]: 注册成功，返回到登陆页面
Fri, 16 Oct 2020 12:55:06-run_all_case.py-test_personalInfoReg.py-[line:34]-INFO-[日志信息]: 开始执行脚本test_infoReg:

Fri, 16 Oct 2020 12:55:06-run_all_case.py-test_personalInfoReg.py-[line:38]-INFO-[日志信息]: 对个人信息企业信息进行删除操作
Fri, 16 Oct 2020 12:55:17-test_infoReg-Assert.py-[line:124]-INFO-[日志信息]: except_result = actul_result, except_result is 首页, actul_result is 首页
Fri, 16 Oct 2020 12:55:17-run_all_case.py-test_personalInfoReg.py-[line:52]-INFO-[日志信息]: 进入登陆页面
Fri, 16 Oct 2020 12:55:18-test_infoReg-Assert.py-[line:124]-INFO-[日志信息]: except_result = actul_result, except_result is 实名认证, actul_result is 实名认证
Fri, 16 Oct 2020 12:55:18-run_all_case.py-test_personalInfoReg.py-[line:58]-INFO-[日志信息]: 实名认证画面成功显示
Fri, 16 Oct 2020 12:55:21-test_infoReg-Assert.py-[line:124]-INFO-[日志信息]: except_result = actul_result, except_result is 认证中, actul_result is 认证中
Fri, 16 Oct 2020 12:55:21-run_all_case.py-test_personalInfoReg.py-[line:96]-INFO-[日志信息]: 实名认证中画面显示
Fri, 16 Oct 2020 12:55:21-test_infoReg-Assert.py-[line:124]-INFO-[日志信息]: except_result = actul_result, except_result is 马化腾, actul_result is 马化腾
Fri, 16 Oct 2020 12:55:21-test_infoReg-Assert.py-[line:124]-INFO-[日志信息]: except_result = actul_result, except_result is 11010119900307475X, actul_result is 11010119900307475X
Fri, 16 Oct 2020 12:55:21-test_infoReg-Assert.py-[line:124]-INFO-[日志信息]: except_result = actul_result, except_result is 17082238021, actul_result is 17082238021
Fri, 16 Oct 2020 12:57:37-run_all_case.py-run_all_case.py-[line:41]-INFO-[日志信息]: ==================================2020-10-16 12:57:37===================================
Fri, 16 Oct 2020 12:57:37-run_all_case.py-test_login.py-[line:56]-INFO-[日志信息]: 开始执行脚本test_companyRegister:

Fri, 16 Oct 2020 12:57:47-run_all_case.py-test_login.py-[line:63]-INFO-[日志信息]: 对已注册的账户进行删除操作
Fri, 16 Oct 2020 12:57:52-test_companyRegister-Assert.py-[line:124]-INFO-[日志信息]: except_result = actul_result, except_result is 中小微企业金融服务聚合平台, actul_result is 中小微企业金融服务聚合平台
Fri, 16 Oct 2020 12:57:52-run_all_case.py-test_login.py-[line:91]-INFO-[日志信息]: 注册成功，返回到登陆页面
Fri, 16 Oct 2020 12:57:55-run_all_case.py-test_personalInfoReg.py-[line:34]-INFO-[日志信息]: 开始执行脚本test_infoReg:

Fri, 16 Oct 2020 12:57:55-run_all_case.py-test_personalInfoReg.py-[line:38]-INFO-[日志信息]: 对个人信息企业信息进行删除操作
Fri, 16 Oct 2020 12:58:06-test_infoReg-Assert.py-[line:124]-INFO-[日志信息]: except_result = actul_result, except_result is 首页, actul_result is 首页
Fri, 16 Oct 2020 12:58:06-run_all_case.py-test_personalInfoReg.py-[line:52]-INFO-[日志信息]: 进入登陆页面
Fri, 16 Oct 2020 12:58:10-test_infoReg-Assert.py-[line:124]-INFO-[日志信息]: except_result = actul_result, except_result is 实名认证, actul_result is 实名认证
Fri, 16 Oct 2020 12:58:10-run_all_case.py-test_personalInfoReg.py-[line:58]-INFO-[日志信息]: 实名认证画面成功显示
Fri, 16 Oct 2020 12:58:13-test_infoReg-Assert.py-[line:124]-INFO-[日志信息]: except_result = actul_result, except_result is 认证中, actul_result is 认证中
Fri, 16 Oct 2020 12:58:13-run_all_case.py-test_personalInfoReg.py-[line:96]-INFO-[日志信息]: 实名认证中画面显示
Fri, 16 Oct 2020 12:58:13-test_infoReg-Assert.py-[line:124]-INFO-[日志信息]: except_result = actul_result, except_result is 马化腾, actul_result is 马化腾
Fri, 16 Oct 2020 12:58:13-test_infoReg-Assert.py-[line:124]-INFO-[日志信息]: except_result = actul_result, except_result is 11010119900307475X, actul_result is 11010119900307475X
Fri, 16 Oct 2020 12:58:13-test_infoReg-Assert.py-[line:124]-INFO-[日志信息]: except_result = actul_result, except_result is 17082238021, actul_result is 17082238021
Fri, 16 Oct 2020 12:58:58-run_all_case.py-run_all_case.py-[line:41]-INFO-[日志信息]: ==================================2020-10-16 12:58:58===================================
Fri, 16 Oct 2020 12:58:58-run_all_case.py-test_login.py-[line:56]-INFO-[日志信息]: 开始执行脚本test_companyRegister:

Fri, 16 Oct 2020 12:59:09-run_all_case.py-test_login.py-[line:63]-INFO-[日志信息]: 对已注册的账户进行删除操作
Fri, 16 Oct 2020 12:59:13-test_companyRegister-Assert.py-[line:124]-INFO-[日志信息]: except_result = actul_result, except_result is 中小微企业金融服务聚合平台, actul_result is 中小微企业金融服务聚合平台
Fri, 16 Oct 2020 12:59:13-run_all_case.py-test_login.py-[line:91]-INFO-[日志信息]: 注册成功，返回到登陆页面
Fri, 16 Oct 2020 12:59:16-run_all_case.py-test_personalInfoReg.py-[line:34]-INFO-[日志信息]: 开始执行脚本test_infoReg:

Fri, 16 Oct 2020 12:59:16-run_all_case.py-test_personalInfoReg.py-[line:38]-INFO-[日志信息]: 对个人信息企业信息进行删除操作
Fri, 16 Oct 2020 12:59:30-run_all_case.py-run_all_case.py-[line:41]-INFO-[日志信息]: ==================================2020-10-16 12:59:30===================================
Fri, 16 Oct 2020 12:59:30-run_all_case.py-test_login.py-[line:56]-INFO-[日志信息]: 开始执行脚本test_companyRegister:

Fri, 16 Oct 2020 12:59:41-run_all_case.py-test_login.py-[line:63]-INFO-[日志信息]: 对已注册的账户进行删除操作
Fri, 16 Oct 2020 12:59:45-test_companyRegister-Assert.py-[line:124]-INFO-[日志信息]: except_result = actul_result, except_result is 中小微企业金融服务聚合平台, actul_result is 中小微企业金融服务聚合平台
Fri, 16 Oct 2020 12:59:45-run_all_case.py-test_login.py-[line:91]-INFO-[日志信息]: 注册成功，返回到登陆页面
Fri, 16 Oct 2020 12:59:48-run_all_case.py-test_personalInfoReg.py-[line:34]-INFO-[日志信息]: 开始执行脚本test_infoReg:

Fri, 16 Oct 2020 12:59:48-run_all_case.py-test_personalInfoReg.py-[line:38]-INFO-[日志信息]: 对个人信息企业信息进行删除操作
Fri, 16 Oct 2020 12:59:59-test_infoReg-Assert.py-[line:124]-INFO-[日志信息]: except_result = actul_result, except_result is 首页, actul_result is 首页
Fri, 16 Oct 2020 12:59:59-run_all_case.py-test_personalInfoReg.py-[line:52]-INFO-[日志信息]: 进入登陆页面
Fri, 16 Oct 2020 13:00:00-test_infoReg-Assert.py-[line:124]-INFO-[日志信息]: except_result = actul_result, except_result is 实名认证, actul_result is 实名认证
Fri, 16 Oct 2020 13:00:00-run_all_case.py-test_personalInfoReg.py-[line:58]-INFO-[日志信息]: 实名认证画面成功显示
Fri, 16 Oct 2020 13:00:09-test_infoReg-Assert.py-[line:124]-INFO-[日志信息]: except_result = actul_result, except_result is 认证中, actul_result is 认证中
Fri, 16 Oct 2020 13:00:09-run_all_case.py-test_personalInfoReg.py-[line:96]-INFO-[日志信息]: 实名认证中画面显示
Fri, 16 Oct 2020 13:00:09-test_infoReg-Assert.py-[line:124]-INFO-[日志信息]: except_result = actul_result, except_result is 马化腾, actul_result is 马化腾
Fri, 16 Oct 2020 13:00:09-test_infoReg-Assert.py-[line:124]-INFO-[日志信息]: except_result = actul_result, except_result is 11010119900307475X, actul_result is 11010119900307475X
Fri, 16 Oct 2020 13:00:09-test_infoReg-Assert.py-[line:124]-INFO-[日志信息]: except_result = actul_result, except_result is 17082238021, actul_result is 17082238021
Fri, 16 Oct 2020 13:01:13-run_all_case.py-run_all_case.py-[line:41]-INFO-[日志信息]: ==================================2020-10-16 13:01:13===================================
Fri, 16 Oct 2020 13:01:13-run_all_case.py-test_login.py-[line:56]-INFO-[日志信息]: 开始执行脚本test_companyRegister:

Fri, 16 Oct 2020 13:01:23-run_all_case.py-test_login.py-[line:63]-INFO-[日志信息]: 对已注册的账户进行删除操作
Fri, 16 Oct 2020 13:01:27-test_companyRegister-Assert.py-[line:124]-INFO-[日志信息]: except_result = actul_result, except_result is 中小微企业金融服务聚合平台, actul_result is 中小微企业金融服务聚合平台
Fri, 16 Oct 2020 13:01:27-run_all_case.py-test_login.py-[line:91]-INFO-[日志信息]: 注册成功，返回到登陆页面
Fri, 16 Oct 2020 13:01:31-run_all_case.py-test_personalInfoReg.py-[line:34]-INFO-[日志信息]: 开始执行脚本test_infoReg:

Fri, 16 Oct 2020 13:01:31-run_all_case.py-test_personalInfoReg.py-[line:38]-INFO-[日志信息]: 对个人信息企业信息进行删除操作
Fri, 16 Oct 2020 13:01:42-test_infoReg-Assert.py-[line:124]-INFO-[日志信息]: except_result = actul_result, except_result is 首页, actul_result is 首页
Fri, 16 Oct 2020 13:01:42-run_all_case.py-test_personalInfoReg.py-[line:52]-INFO-[日志信息]: 进入登陆页面
Fri, 16 Oct 2020 13:01:43-test_infoReg-Assert.py-[line:124]-INFO-[日志信息]: except_result = actul_result, except_result is 实名认证, actul_result is 实名认证
Fri, 16 Oct 2020 13:01:43-run_all_case.py-test_personalInfoReg.py-[line:58]-INFO-[日志信息]: 实名认证画面成功显示
Fri, 16 Oct 2020 13:02:18-test_infoReg-Assert.py-[line:124]-INFO-[日志信息]: except_result = actul_result, except_result is 认证中, actul_result is 认证中
Fri, 16 Oct 2020 13:02:18-run_all_case.py-test_personalInfoReg.py-[line:96]-INFO-[日志信息]: 实名认证中画面显示
Fri, 16 Oct 2020 13:02:18-test_infoReg-Assert.py-[line:124]-INFO-[日志信息]: except_result = actul_result, except_result is 马化腾, actul_result is 马化腾
Fri, 16 Oct 2020 13:02:18-test_infoReg-Assert.py-[line:124]-INFO-[日志信息]: except_result = actul_result, except_result is 11010119900307475X, actul_result is 11010119900307475X
Fri, 16 Oct 2020 13:02:18-test_infoReg-Assert.py-[line:124]-INFO-[日志信息]: except_result = actul_result, except_result is 17082238021, actul_result is 17082238021
Fri, 16 Oct 2020 13:08:03-run_all_case.py-run_all_case.py-[line:41]-INFO-[日志信息]: ==================================2020-10-16 13:08:03===================================
Fri, 16 Oct 2020 13:08:04-run_all_case.py-test_login.py-[line:56]-INFO-[日志信息]: 开始执行脚本test_companyRegister:

Fri, 16 Oct 2020 13:08:14-run_all_case.py-test_login.py-[line:63]-INFO-[日志信息]: 对已注册的账户进行删除操作
Fri, 16 Oct 2020 13:08:18-test_companyRegister-Assert.py-[line:124]-INFO-[日志信息]: except_result = actul_result, except_result is 中小微企业金融服务聚合平台, actul_result is 中小微企业金融服务聚合平台
Fri, 16 Oct 2020 13:08:18-run_all_case.py-test_login.py-[line:91]-INFO-[日志信息]: 注册成功，返回到登陆页面
Fri, 16 Oct 2020 13:08:21-run_all_case.py-test_personalInfoReg.py-[line:34]-INFO-[日志信息]: 开始执行脚本test_infoReg:

Fri, 16 Oct 2020 13:08:21-run_all_case.py-test_personalInfoReg.py-[line:38]-INFO-[日志信息]: 对个人信息企业信息进行删除操作
Fri, 16 Oct 2020 13:08:32-test_infoReg-Assert.py-[line:124]-INFO-[日志信息]: except_result = actul_result, except_result is 首页, actul_result is 首页
Fri, 16 Oct 2020 13:08:32-run_all_case.py-test_personalInfoReg.py-[line:52]-INFO-[日志信息]: 进入登陆页面
Fri, 16 Oct 2020 13:08:33-test_infoReg-Assert.py-[line:124]-INFO-[日志信息]: except_result = actul_result, except_result is 实名认证, actul_result is 实名认证
Fri, 16 Oct 2020 13:08:33-run_all_case.py-test_personalInfoReg.py-[line:58]-INFO-[日志信息]: 实名认证画面成功显示
Fri, 16 Oct 2020 13:08:46-test_infoReg-Assert.py-[line:124]-INFO-[日志信息]: except_result = actul_result, except_result is 认证中, actul_result is 认证中
Fri, 16 Oct 2020 13:08:46-run_all_case.py-test_personalInfoReg.py-[line:96]-INFO-[日志信息]: 实名认证中画面显示
Fri, 16 Oct 2020 13:08:47-test_infoReg-Assert.py-[line:124]-INFO-[日志信息]: except_result = actul_result, except_result is 马化腾, actul_result is 马化腾
Fri, 16 Oct 2020 13:08:47-test_infoReg-Assert.py-[line:124]-INFO-[日志信息]: except_result = actul_result, except_result is 11010119900307475X, actul_result is 11010119900307475X
Fri, 16 Oct 2020 13:08:47-test_infoReg-Assert.py-[line:124]-INFO-[日志信息]: except_result = actul_result, except_result is 17082238021, actul_result is 17082238021
Fri, 16 Oct 2020 13:08:56-test_infoReg-Assert.py-[line:124]-INFO-[日志信息]: except_result = actul_result, except_result is 认证成功, actul_result is 认证成功
Fri, 16 Oct 2020 13:08:56-run_all_case.py-test_personalInfoReg.py-[line:110]-INFO-[日志信息]: 实名认证成功画面显示
Fri, 16 Oct 2020 13:08:56-test_infoReg-Assert.py-[line:124]-INFO-[日志信息]: except_result = actul_result, except_result is 实名认证, actul_result is 实名认证
Fri, 16 Oct 2020 13:08:56-run_all_case.py-test_personalInfoReg.py-[line:115]-INFO-[日志信息]: 点击查看认证信息按钮，跳转到实名认证画面
Fri, 16 Oct 2020 13:08:59-run_all_case.py-test_businessInfoReg.py-[line:36]-INFO-[日志信息]: 开始执行脚本test_businessInforReg:

Fri, 16 Oct 2020 13:09:09-test_businessInforReg-Assert.py-[line:124]-INFO-[日志信息]: except_result = actul_result, except_result is 企业基本资料, actul_result is 企业基本资料
Fri, 16 Oct 2020 13:09:09-run_all_case.py-test_businessInfoReg.py-[line:47]-INFO-[日志信息]: 企业基本资料画面正常显示
Fri, 16 Oct 2020 13:09:40-run_all_case.py-test_backStage_examine.py-[line:24]-INFO-[日志信息]: 开始执行脚本test_backstage_examine:

Fri, 16 Oct 2020 13:09:58-run_all_case.py-test_backStage_authentication.py-[line:173]-INFO-[日志信息]: 开始执行脚本test_backStageActCreate:

Fri, 16 Oct 2020 13:10:09-run_all_case.py-test_backStage_examine.py-[line:74]-INFO-[日志信息]: 成功登录后台系统
Fri, 16 Oct 2020 13:10:09-run_all_case.py-test_backStage_authentication.py-[line:183]-INFO-[日志信息]: 机构信息DB删除
Fri, 16 Oct 2020 13:10:25-run_all_case.py-test_backStage_authentication.py-[line:341]-INFO-[日志信息]: 进入担保公司创建页面
Fri, 16 Oct 2020 13:10:28-run_all_case.py-test_backStage_authentication.py-[line:339]-INFO-[日志信息]: 进入银行账户创建页面
Fri, 16 Oct 2020 13:10:33-run_all_case.py-test_backStage_authentication.py-[line:278]-INFO-[日志信息]: 开始执行脚本test_backStage_authentication:

Fri, 16 Oct 2020 13:10:33-run_all_case.py-test_backStage_authentication.py-[line:281]-INFO-[日志信息]: 开始执行脚本test_backStage_authentication:

Fri, 16 Oct 2020 13:10:47-run_all_case.py-test_login.py-[line:170]-INFO-[日志信息]: 成功进入到密码重置页面
Fri, 16 Oct 2020 13:10:49-run_all_case.py-test_login.py-[line:177]-INFO-[日志信息]: 成功进入到密码修改完成页面
Fri, 16 Oct 2020 13:10:53-run_all_case.py-test_login.py-[line:170]-INFO-[日志信息]: 成功进入到密码重置页面
Fri, 16 Oct 2020 13:10:56-run_all_case.py-test_login.py-[line:177]-INFO-[日志信息]: 成功进入到密码修改完成页面
Fri, 16 Oct 2020 13:10:57-run_all_case.py-test_backStage_examine.py-[line:74]-INFO-[日志信息]: 成功登录后台系统
Fri, 16 Oct 2020 13:11:02-run_all_case.py-test_backStage_authentication.py-[line:236]-INFO-[日志信息]: 企业信息认证
Fri, 16 Oct 2020 13:11:05-run_all_case.py-test_backStage_authentication.py-[line:253]-INFO-[日志信息]: 协议内容确认页面
Fri, 16 Oct 2020 13:13:29-run_all_case.py-run_all_case.py-[line:41]-INFO-[日志信息]: ==================================2020-10-16 13:13:29===================================
Fri, 16 Oct 2020 13:13:29-run_all_case.py-test_login.py-[line:56]-INFO-[日志信息]: 开始执行脚本test_companyRegister:

Fri, 16 Oct 2020 13:13:39-run_all_case.py-test_login.py-[line:63]-INFO-[日志信息]: 对已注册的账户进行删除操作
Fri, 16 Oct 2020 13:13:43-test_companyRegister-Assert.py-[line:124]-INFO-[日志信息]: except_result = actul_result, except_result is 中小微企业金融服务聚合平台, actul_result is 中小微企业金融服务聚合平台
Fri, 16 Oct 2020 13:13:43-run_all_case.py-test_login.py-[line:91]-INFO-[日志信息]: 注册成功，返回到登陆页面
Fri, 16 Oct 2020 13:13:46-run_all_case.py-test_personalInfoReg.py-[line:34]-INFO-[日志信息]: 开始执行脚本test_infoReg:

Fri, 16 Oct 2020 13:13:46-run_all_case.py-test_personalInfoReg.py-[line:38]-INFO-[日志信息]: 对个人信息企业信息进行删除操作
Fri, 16 Oct 2020 13:13:58-test_infoReg-Assert.py-[line:124]-INFO-[日志信息]: except_result = actul_result, except_result is 首页, actul_result is 首页
Fri, 16 Oct 2020 13:13:58-run_all_case.py-test_personalInfoReg.py-[line:52]-INFO-[日志信息]: 进入登陆页面
Fri, 16 Oct 2020 13:14:02-test_infoReg-Assert.py-[line:124]-INFO-[日志信息]: except_result = actul_result, except_result is 实名认证, actul_result is 实名认证
Fri, 16 Oct 2020 13:14:02-run_all_case.py-test_personalInfoReg.py-[line:58]-INFO-[日志信息]: 实名认证画面成功显示
Fri, 16 Oct 2020 13:14:15-test_infoReg-Assert.py-[line:124]-INFO-[日志信息]: except_result = actul_result, except_result is 认证中, actul_result is 认证中
Fri, 16 Oct 2020 13:14:15-run_all_case.py-test_personalInfoReg.py-[line:96]-INFO-[日志信息]: 实名认证中画面显示
Fri, 16 Oct 2020 13:14:15-test_infoReg-Assert.py-[line:124]-INFO-[日志信息]: except_result = actul_result, except_result is 马化腾, actul_result is 马化腾
Fri, 16 Oct 2020 13:14:15-test_infoReg-Assert.py-[line:124]-INFO-[日志信息]: except_result = actul_result, except_result is 11010119900307475X, actul_result is 11010119900307475X
Fri, 16 Oct 2020 13:14:15-test_infoReg-Assert.py-[line:124]-INFO-[日志信息]: except_result = actul_result, except_result is 17082238021, actul_result is 17082238021
Fri, 16 Oct 2020 13:14:25-test_infoReg-Assert.py-[line:124]-INFO-[日志信息]: except_result = actul_result, except_result is 认证成功, actul_result is 认证成功
Fri, 16 Oct 2020 13:14:25-run_all_case.py-test_personalInfoReg.py-[line:110]-INFO-[日志信息]: 实名认证成功画面显示
Fri, 16 Oct 2020 13:14:25-test_infoReg-Assert.py-[line:124]-INFO-[日志信息]: except_result = actul_result, except_result is 实名认证, actul_result is 实名认证
Fri, 16 Oct 2020 13:14:25-run_all_case.py-test_personalInfoReg.py-[line:115]-INFO-[日志信息]: 点击查看认证信息按钮，跳转到实名认证画面
Fri, 16 Oct 2020 13:14:27-run_all_case.py-test_businessInfoReg.py-[line:36]-INFO-[日志信息]: 开始执行脚本test_businessInforReg:

Fri, 16 Oct 2020 13:14:38-test_businessInforReg-Assert.py-[line:124]-INFO-[日志信息]: except_result = actul_result, except_result is 企业基本资料, actul_result is 企业基本资料
Fri, 16 Oct 2020 13:14:38-run_all_case.py-test_businessInfoReg.py-[line:47]-INFO-[日志信息]: 企业基本资料画面正常显示
Fri, 16 Oct 2020 13:14:48-test_businessInforReg-Assert.py-[line:124]-INFO-[日志信息]: except_result = actul_result, except_result is 请确认协议内容, actul_result is 请确认协议内容
Fri, 16 Oct 2020 13:14:48-run_all_case.py-test_businessInfoReg.py-[line:110]-INFO-[日志信息]: 协议确认画面正常显示
Fri, 16 Oct 2020 13:14:50-test_businessInforReg-Assert.py-[line:124]-INFO-[日志信息]: except_result = actul_result, except_result is 认证中, actul_result is 认证中
Fri, 16 Oct 2020 13:14:50-run_all_case.py-test_businessInfoReg.py-[line:120]-INFO-[日志信息]: 企业信息认证中画面正常显示
Fri, 16 Oct 2020 13:14:50-run_all_case.py-test_backStage_examine.py-[line:24]-INFO-[日志信息]: 开始执行脚本test_backstage_examine:

Fri, 16 Oct 2020 13:15:01-run_all_case.py-test_backStage_examine.py-[line:74]-INFO-[日志信息]: 成功登录后台系统
Fri, 16 Oct 2020 13:15:06-test_backstage_examine-Assert.py-[line:124]-INFO-[日志信息]: except_result = actul_result, except_result is 用户基本信息, actul_result is 用户基本信息
Fri, 16 Oct 2020 13:15:06-run_all_case.py-test_backStage_examine.py-[line:54]-INFO-[日志信息]: 成功进入企业信息审核画面
Fri, 16 Oct 2020 13:15:08-run_all_case.py-test_backStage_authentication.py-[line:173]-INFO-[日志信息]: 开始执行脚本test_backStageActCreate:

Fri, 16 Oct 2020 13:15:19-run_all_case.py-test_backStage_examine.py-[line:74]-INFO-[日志信息]: 成功登录后台系统
Fri, 16 Oct 2020 13:15:19-run_all_case.py-test_backStage_authentication.py-[line:183]-INFO-[日志信息]: 机构信息DB删除
Fri, 16 Oct 2020 13:15:35-run_all_case.py-test_backStage_authentication.py-[line:341]-INFO-[日志信息]: 进入担保公司创建页面
Fri, 16 Oct 2020 13:15:39-run_all_case.py-test_backStage_authentication.py-[line:339]-INFO-[日志信息]: 进入银行账户创建页面
Fri, 16 Oct 2020 13:15:43-run_all_case.py-test_backStage_authentication.py-[line:278]-INFO-[日志信息]: 开始执行脚本test_backStage_authentication:

Fri, 16 Oct 2020 13:15:43-run_all_case.py-test_backStage_authentication.py-[line:281]-INFO-[日志信息]: 开始执行脚本test_backStage_authentication:

Fri, 16 Oct 2020 13:15:53-run_all_case.py-test_Tripartite_interaction.py-[line:138]-INFO-[日志信息]: 开始执行脚本test_Tripartite_interaction:

Fri, 16 Oct 2020 13:16:03-run_all_case.py-test_Tripartite_interaction.py-[line:145]-INFO-[日志信息]: 前端账户登录授信申请
Fri, 16 Oct 2020 13:16:04-run_all_case.py-test_Tripartite_interaction.py-[line:216]-INFO-[日志信息]: 进入到前端首页
Fri, 16 Oct 2020 13:16:04-run_all_case.py-test_Tripartite_interaction.py-[line:219]-INFO-[日志信息]: 进入到前端进入产品选择首页
Fri, 16 Oct 2020 13:16:06-run_all_case.py-test_Tripartite_interaction.py-[line:224]-INFO-[日志信息]: 进入到前端进入产品详情页
Fri, 16 Oct 2020 13:19:18-run_all_case.py-run_all_case.py-[line:41]-INFO-[日志信息]: ==================================2020-10-16 13:19:18===================================
Fri, 16 Oct 2020 13:19:18-run_all_case.py-test_login.py-[line:56]-INFO-[日志信息]: 开始执行脚本test_companyRegister:

Fri, 16 Oct 2020 13:19:28-run_all_case.py-test_login.py-[line:63]-INFO-[日志信息]: 对已注册的账户进行删除操作
Fri, 16 Oct 2020 13:19:32-test_companyRegister-Assert.py-[line:124]-INFO-[日志信息]: except_result = actul_result, except_result is 中小微企业金融服务聚合平台, actul_result is 中小微企业金融服务聚合平台
Fri, 16 Oct 2020 13:19:32-run_all_case.py-test_login.py-[line:91]-INFO-[日志信息]: 注册成功，返回到登陆页面
Fri, 16 Oct 2020 13:19:36-run_all_case.py-test_personalInfoReg.py-[line:34]-INFO-[日志信息]: 开始执行脚本test_infoReg:

Fri, 16 Oct 2020 13:19:36-run_all_case.py-test_personalInfoReg.py-[line:38]-INFO-[日志信息]: 对个人信息企业信息进行删除操作
Fri, 16 Oct 2020 13:19:47-test_infoReg-Assert.py-[line:124]-INFO-[日志信息]: except_result = actul_result, except_result is 首页, actul_result is 首页
Fri, 16 Oct 2020 13:19:47-run_all_case.py-test_personalInfoReg.py-[line:52]-INFO-[日志信息]: 进入登陆页面
Fri, 16 Oct 2020 13:19:48-test_infoReg-Assert.py-[line:124]-INFO-[日志信息]: except_result = actul_result, except_result is 实名认证, actul_result is 实名认证
Fri, 16 Oct 2020 13:19:48-run_all_case.py-test_personalInfoReg.py-[line:58]-INFO-[日志信息]: 实名认证画面成功显示
Fri, 16 Oct 2020 13:20:01-test_infoReg-Assert.py-[line:124]-INFO-[日志信息]: except_result = actul_result, except_result is 认证中, actul_result is 认证中
Fri, 16 Oct 2020 13:20:01-run_all_case.py-test_personalInfoReg.py-[line:96]-INFO-[日志信息]: 实名认证中画面显示
Fri, 16 Oct 2020 13:20:01-test_infoReg-Assert.py-[line:124]-INFO-[日志信息]: except_result = actul_result, except_result is 马化腾, actul_result is 马化腾
Fri, 16 Oct 2020 13:20:01-test_infoReg-Assert.py-[line:124]-INFO-[日志信息]: except_result = actul_result, except_result is 11010119900307475X, actul_result is 11010119900307475X
Fri, 16 Oct 2020 13:20:01-test_infoReg-Assert.py-[line:124]-INFO-[日志信息]: except_result = actul_result, except_result is 17082238021, actul_result is 17082238021
Fri, 16 Oct 2020 13:20:11-test_infoReg-Assert.py-[line:124]-INFO-[日志信息]: except_result = actul_result, except_result is 认证成功, actul_result is 认证成功
Fri, 16 Oct 2020 13:20:11-run_all_case.py-test_personalInfoReg.py-[line:110]-INFO-[日志信息]: 实名认证成功画面显示
Fri, 16 Oct 2020 13:20:11-test_infoReg-Assert.py-[line:124]-INFO-[日志信息]: except_result = actul_result, except_result is 实名认证, actul_result is 实名认证
Fri, 16 Oct 2020 13:20:11-run_all_case.py-test_personalInfoReg.py-[line:115]-INFO-[日志信息]: 点击查看认证信息按钮，跳转到实名认证画面
Fri, 16 Oct 2020 13:20:13-run_all_case.py-test_businessInfoReg.py-[line:36]-INFO-[日志信息]: 开始执行脚本test_businessInforReg:

Fri, 16 Oct 2020 13:20:24-test_businessInforReg-Assert.py-[line:124]-INFO-[日志信息]: except_result = actul_result, except_result is 企业基本资料, actul_result is 企业基本资料
Fri, 16 Oct 2020 13:20:24-run_all_case.py-test_businessInfoReg.py-[line:47]-INFO-[日志信息]: 企业基本资料画面正常显示
Fri, 16 Oct 2020 13:20:33-test_businessInforReg-Assert.py-[line:124]-INFO-[日志信息]: except_result = actul_result, except_result is 请确认协议内容, actul_result is 请确认协议内容
Fri, 16 Oct 2020 13:20:33-run_all_case.py-test_businessInfoReg.py-[line:110]-INFO-[日志信息]: 协议确认画面正常显示
Fri, 16 Oct 2020 13:20:36-test_businessInforReg-Assert.py-[line:124]-INFO-[日志信息]: except_result = actul_result, except_result is 认证中, actul_result is 认证中
Fri, 16 Oct 2020 13:20:36-run_all_case.py-test_businessInfoReg.py-[line:120]-INFO-[日志信息]: 企业信息认证中画面正常显示
Fri, 16 Oct 2020 13:21:03-test_businessInforReg-Assert.py-[line:124]-INFO-[日志信息]: except_result = actul_result, except_result is 审核中, actul_result is 审核中
Fri, 16 Oct 2020 13:21:03-run_all_case.py-test_businessInfoReg.py-[line:134]-INFO-[日志信息]: 企业信息审核中画面正常显示
Fri, 16 Oct 2020 13:21:04-test_businessInforReg-Assert.py-[line:124]-INFO-[日志信息]: except_result = actul_result, except_result is 企业基本资料, actul_result is 企业基本资料
Fri, 16 Oct 2020 13:21:04-run_all_case.py-test_businessInfoReg.py-[line:141]-INFO-[日志信息]: 企业基本资料画面正常显示
Fri, 16 Oct 2020 13:21:06-run_all_case.py-test_backStage_examine.py-[line:24]-INFO-[日志信息]: 开始执行脚本test_backstage_examine:

Fri, 16 Oct 2020 13:21:17-run_all_case.py-test_backStage_examine.py-[line:74]-INFO-[日志信息]: 成功登录后台系统
Fri, 16 Oct 2020 13:21:22-test_backstage_examine-Assert.py-[line:124]-INFO-[日志信息]: except_result = actul_result, except_result is 用户基本信息, actul_result is 用户基本信息
Fri, 16 Oct 2020 13:21:22-run_all_case.py-test_backStage_examine.py-[line:54]-INFO-[日志信息]: 成功进入企业信息审核画面
Fri, 16 Oct 2020 13:21:23-run_all_case.py-test_backStage_examine.py-[line:61]-INFO-[日志信息]: 企业认证通过
Fri, 16 Oct 2020 13:21:25-run_all_case.py-test_backStage_authentication.py-[line:173]-INFO-[日志信息]: 开始执行脚本test_backStageActCreate:

Fri, 16 Oct 2020 13:21:36-run_all_case.py-test_backStage_examine.py-[line:74]-INFO-[日志信息]: 成功登录后台系统
Fri, 16 Oct 2020 13:21:36-run_all_case.py-test_backStage_authentication.py-[line:183]-INFO-[日志信息]: 机构信息DB删除
Fri, 16 Oct 2020 13:21:52-run_all_case.py-test_backStage_authentication.py-[line:341]-INFO-[日志信息]: 进入担保公司创建页面
Fri, 16 Oct 2020 13:21:55-run_all_case.py-test_backStage_authentication.py-[line:339]-INFO-[日志信息]: 进入银行账户创建页面
Fri, 16 Oct 2020 13:22:00-run_all_case.py-test_backStage_authentication.py-[line:278]-INFO-[日志信息]: 开始执行脚本test_backStage_authentication:

Fri, 16 Oct 2020 13:22:00-run_all_case.py-test_backStage_authentication.py-[line:281]-INFO-[日志信息]: 开始执行脚本test_backStage_authentication:

Fri, 16 Oct 2020 13:22:14-run_all_case.py-test_login.py-[line:170]-INFO-[日志信息]: 成功进入到密码重置页面
Fri, 16 Oct 2020 13:22:17-run_all_case.py-test_login.py-[line:177]-INFO-[日志信息]: 成功进入到密码修改完成页面
Fri, 16 Oct 2020 13:22:21-run_all_case.py-test_login.py-[line:170]-INFO-[日志信息]: 成功进入到密码重置页面
Fri, 16 Oct 2020 13:22:23-run_all_case.py-test_login.py-[line:177]-INFO-[日志信息]: 成功进入到密码修改完成页面
Fri, 16 Oct 2020 13:22:24-run_all_case.py-test_backStage_examine.py-[line:74]-INFO-[日志信息]: 成功登录后台系统
Fri, 16 Oct 2020 13:22:29-run_all_case.py-test_backStage_authentication.py-[line:236]-INFO-[日志信息]: 企业信息认证
Fri, 16 Oct 2020 13:22:32-run_all_case.py-test_backStage_authentication.py-[line:253]-INFO-[日志信息]: 协议内容确认页面
Fri, 16 Oct 2020 13:28:29-run_all_case.py-run_all_case.py-[line:41]-INFO-[日志信息]: ==================================2020-10-16 13:28:29===================================
Fri, 16 Oct 2020 13:28:30-run_all_case.py-test_login.py-[line:56]-INFO-[日志信息]: 开始执行脚本test_companyRegister:

Fri, 16 Oct 2020 13:30:22-run_all_case.py-run_all_case.py-[line:41]-INFO-[日志信息]: ==================================2020-10-16 13:30:22===================================
Fri, 16 Oct 2020 13:30:22-run_all_case.py-test_login.py-[line:56]-INFO-[日志信息]: 开始执行脚本test_companyRegister:

Fri, 16 Oct 2020 13:30:33-run_all_case.py-test_login.py-[line:63]-INFO-[日志信息]: 对已注册的账户进行删除操作
Fri, 16 Oct 2020 13:30:37-test_companyRegister-Assert.py-[line:124]-INFO-[日志信息]: except_result = actul_result, except_result is 中小微企业金融服务聚合平台, actul_result is 中小微企业金融服务聚合平台
Fri, 16 Oct 2020 13:30:37-run_all_case.py-test_login.py-[line:91]-INFO-[日志信息]: 注册成功，返回到登陆页面
Fri, 16 Oct 2020 13:30:40-run_all_case.py-test_personalInfoReg.py-[line:34]-INFO-[日志信息]: 开始执行脚本test_infoReg:

Fri, 16 Oct 2020 13:30:40-run_all_case.py-test_personalInfoReg.py-[line:38]-INFO-[日志信息]: 对个人信息企业信息进行删除操作
Fri, 16 Oct 2020 13:30:51-test_infoReg-Assert.py-[line:124]-INFO-[日志信息]: except_result = actul_result, except_result is 首页, actul_result is 首页
Fri, 16 Oct 2020 13:30:51-run_all_case.py-test_personalInfoReg.py-[line:52]-INFO-[日志信息]: 进入登陆页面
Fri, 16 Oct 2020 13:30:56-test_infoReg-Assert.py-[line:124]-INFO-[日志信息]: except_result = actul_result, except_result is 实名认证, actul_result is 实名认证
Fri, 16 Oct 2020 13:30:56-run_all_case.py-test_personalInfoReg.py-[line:58]-INFO-[日志信息]: 实名认证画面成功显示
Fri, 16 Oct 2020 13:31:15-test_infoReg-Assert.py-[line:124]-INFO-[日志信息]: except_result = actul_result, except_result is 认证中, actul_result is 认证中
Fri, 16 Oct 2020 13:31:15-run_all_case.py-test_personalInfoReg.py-[line:96]-INFO-[日志信息]: 实名认证中画面显示
Fri, 16 Oct 2020 13:31:15-test_infoReg-Assert.py-[line:124]-INFO-[日志信息]: except_result = actul_result, except_result is 李涛, actul_result is 李涛
Fri, 16 Oct 2020 13:31:16-test_infoReg-Assert.py-[line:124]-INFO-[日志信息]: except_result = actul_result, except_result is 410184198105155611, actul_result is 410184198105155611
Fri, 16 Oct 2020 13:31:16-test_infoReg-Assert.py-[line:124]-INFO-[日志信息]: except_result = actul_result, except_result is 17082238021, actul_result is 17082238021
Fri, 16 Oct 2020 13:31:24-test_infoReg-Assert.py-[line:124]-INFO-[日志信息]: except_result = actul_result, except_result is 认证成功, actul_result is 认证成功
Fri, 16 Oct 2020 13:31:24-run_all_case.py-test_personalInfoReg.py-[line:110]-INFO-[日志信息]: 实名认证成功画面显示
Fri, 16 Oct 2020 13:31:24-test_infoReg-Assert.py-[line:124]-INFO-[日志信息]: except_result = actul_result, except_result is 实名认证, actul_result is 实名认证
Fri, 16 Oct 2020 13:31:24-run_all_case.py-test_personalInfoReg.py-[line:115]-INFO-[日志信息]: 点击查看认证信息按钮，跳转到实名认证画面
Fri, 16 Oct 2020 13:31:27-run_all_case.py-test_businessInfoReg.py-[line:36]-INFO-[日志信息]: 开始执行脚本test_businessInforReg:

Fri, 16 Oct 2020 13:31:37-test_businessInforReg-Assert.py-[line:124]-INFO-[日志信息]: except_result = actul_result, except_result is 企业基本资料, actul_result is 企业基本资料
Fri, 16 Oct 2020 13:31:37-run_all_case.py-test_businessInfoReg.py-[line:47]-INFO-[日志信息]: 企业基本资料画面正常显示
Fri, 16 Oct 2020 13:31:47-test_businessInforReg-Assert.py-[line:124]-INFO-[日志信息]: except_result = actul_result, except_result is 请确认协议内容, actul_result is 请确认协议内容
Fri, 16 Oct 2020 13:31:47-run_all_case.py-test_businessInfoReg.py-[line:110]-INFO-[日志信息]: 协议确认画面正常显示
Fri, 16 Oct 2020 13:31:56-test_businessInforReg-Assert.py-[line:124]-INFO-[日志信息]: except_result = actul_result, except_result is 认证中, actul_result is 认证中
Fri, 16 Oct 2020 13:31:56-run_all_case.py-test_businessInfoReg.py-[line:120]-INFO-[日志信息]: 企业信息认证中画面正常显示
Fri, 16 Oct 2020 13:32:25-test_businessInforReg-Assert.py-[line:124]-INFO-[日志信息]: except_result = actul_result, except_result is 审核中, actul_result is 审核中
Fri, 16 Oct 2020 13:32:25-run_all_case.py-test_businessInfoReg.py-[line:134]-INFO-[日志信息]: 企业信息审核中画面正常显示
Fri, 16 Oct 2020 13:32:25-test_businessInforReg-Assert.py-[line:124]-INFO-[日志信息]: except_result = actul_result, except_result is 企业基本资料, actul_result is 企业基本资料
Fri, 16 Oct 2020 13:32:25-run_all_case.py-test_businessInfoReg.py-[line:141]-INFO-[日志信息]: 企业基本资料画面正常显示
Fri, 16 Oct 2020 13:32:27-run_all_case.py-test_backStage_examine.py-[line:24]-INFO-[日志信息]: 开始执行脚本test_backstage_examine:

Fri, 16 Oct 2020 13:32:38-run_all_case.py-test_backStage_examine.py-[line:74]-INFO-[日志信息]: 成功登录后台系统
Fri, 16 Oct 2020 13:32:43-test_backstage_examine-Assert.py-[line:124]-INFO-[日志信息]: except_result = actul_result, except_result is 用户基本信息, actul_result is 用户基本信息
Fri, 16 Oct 2020 13:32:43-run_all_case.py-test_backStage_examine.py-[line:54]-INFO-[日志信息]: 成功进入企业信息审核画面
Fri, 16 Oct 2020 13:32:44-run_all_case.py-test_backStage_examine.py-[line:61]-INFO-[日志信息]: 企业认证通过
Fri, 16 Oct 2020 13:32:46-run_all_case.py-test_backStage_authentication.py-[line:173]-INFO-[日志信息]: 开始执行脚本test_backStageActCreate:

Fri, 16 Oct 2020 13:32:57-run_all_case.py-test_backStage_examine.py-[line:74]-INFO-[日志信息]: 成功登录后台系统
Fri, 16 Oct 2020 13:32:57-run_all_case.py-test_backStage_authentication.py-[line:183]-INFO-[日志信息]: 机构信息DB删除
Fri, 16 Oct 2020 13:33:13-run_all_case.py-test_backStage_authentication.py-[line:341]-INFO-[日志信息]: 进入担保公司创建页面
Fri, 16 Oct 2020 13:33:17-run_all_case.py-test_backStage_authentication.py-[line:339]-INFO-[日志信息]: 进入银行账户创建页面
Fri, 16 Oct 2020 13:33:21-run_all_case.py-test_backStage_authentication.py-[line:278]-INFO-[日志信息]: 开始执行脚本test_backStage_authentication:

Fri, 16 Oct 2020 13:33:21-run_all_case.py-test_backStage_authentication.py-[line:281]-INFO-[日志信息]: 开始执行脚本test_backStage_authentication:

Fri, 16 Oct 2020 13:33:35-run_all_case.py-test_login.py-[line:170]-INFO-[日志信息]: 成功进入到密码重置页面
Fri, 16 Oct 2020 13:33:38-run_all_case.py-test_login.py-[line:177]-INFO-[日志信息]: 成功进入到密码修改完成页面
Fri, 16 Oct 2020 13:33:42-run_all_case.py-test_login.py-[line:170]-INFO-[日志信息]: 成功进入到密码重置页面
Fri, 16 Oct 2020 13:33:45-run_all_case.py-test_login.py-[line:177]-INFO-[日志信息]: 成功进入到密码修改完成页面
Fri, 16 Oct 2020 13:33:45-run_all_case.py-test_backStage_examine.py-[line:74]-INFO-[日志信息]: 成功登录后台系统
Fri, 16 Oct 2020 13:33:51-run_all_case.py-test_backStage_authentication.py-[line:236]-INFO-[日志信息]: 企业信息认证
Fri, 16 Oct 2020 13:33:53-run_all_case.py-test_backStage_authentication.py-[line:253]-INFO-[日志信息]: 协议内容确认页面
Fri, 16 Oct 2020 13:34:03-run_all_case.py-test_backStage_authentication.py-[line:265]-INFO-[日志信息]: 二维码认证页面
Fri, 16 Oct 2020 13:34:19-run_all_case.py-test_backStage_examine.py-[line:74]-INFO-[日志信息]: 成功登录后台系统
Fri, 16 Oct 2020 13:34:25-run_all_case.py-test_backStage_authentication.py-[line:236]-INFO-[日志信息]: 企业信息认证
Fri, 16 Oct 2020 13:34:27-run_all_case.py-test_backStage_authentication.py-[line:253]-INFO-[日志信息]: 协议内容确认页面
Fri, 16 Oct 2020 13:34:37-run_all_case.py-test_backStage_authentication.py-[line:265]-INFO-[日志信息]: 二维码认证页面
Fri, 16 Oct 2020 13:34:42-run_all_case.py-test_backStage_authentication.py-[line:44]-INFO-[日志信息]: 首页
Fri, 16 Oct 2020 13:34:45-run_all_case.py-test_backStage_authentication.py-[line:48]-INFO-[日志信息]: 产品基本信息
Fri, 16 Oct 2020 13:34:52-run_all_case.py-test_backStage_authentication.py-[line:139]-INFO-[日志信息]: 产品特性
Fri, 16 Oct 2020 13:34:54-run_all_case.py-test_backStage_authentication.py-[line:154]-INFO-[日志信息]: 计分卡
Fri, 16 Oct 2020 13:34:55-run_all_case.py-test_backStage_authentication.py-[line:161]-INFO-[日志信息]: 进件信息
Fri, 16 Oct 2020 13:34:59-run_all_case.py-test_Tripartite_interaction.py-[line:138]-INFO-[日志信息]: 开始执行脚本test_Tripartite_interaction:

Fri, 16 Oct 2020 13:35:09-run_all_case.py-test_Tripartite_interaction.py-[line:145]-INFO-[日志信息]: 前端账户登录授信申请
Fri, 16 Oct 2020 13:35:10-run_all_case.py-test_Tripartite_interaction.py-[line:216]-INFO-[日志信息]: 进入到前端首页
Fri, 16 Oct 2020 13:35:10-run_all_case.py-test_Tripartite_interaction.py-[line:219]-INFO-[日志信息]: 进入到前端进入产品选择首页
Fri, 16 Oct 2020 13:35:12-run_all_case.py-test_Tripartite_interaction.py-[line:224]-INFO-[日志信息]: 进入到前端进入产品详情页
Fri, 16 Oct 2020 13:35:12-run_all_case.py-test_Tripartite_interaction.py-[line:228]-INFO-[日志信息]: 进入到前端进入产品借款页
Fri, 16 Oct 2020 13:35:24-run_all_case.py-test_Tripartite_interaction.py-[line:234]-INFO-[日志信息]: 进入授信采购信息页面
Fri, 16 Oct 2020 13:35:27-run_all_case.py-test_Tripartite_interaction.py-[line:256]-INFO-[日志信息]: 进入授信基本资料页面
Fri, 16 Oct 2020 13:37:53-run_all_case.py-run_all_case.py-[line:41]-INFO-[日志信息]: ==================================2020-10-16 13:37:53===================================
Fri, 16 Oct 2020 13:37:53-run_all_case.py-test_Tripartite_interaction.py-[line:138]-INFO-[日志信息]: 开始执行脚本test_Tripartite_interaction:

Fri, 16 Oct 2020 13:38:11-run_all_case.py-test_Tripartite_interaction.py-[line:156]-INFO-[日志信息]: 授信采购信息画面
Fri, 16 Oct 2020 13:38:36-run_all_case.py-test_Tripartite_interaction.py-[line:164]-INFO-[日志信息]: 授信基本资料页面
Fri, 16 Oct 2020 13:38:38-run_all_case.py-test_Tripartite_interaction.py-[line:167]-INFO-[日志信息]: 授信页面
Fri, 16 Oct 2020 13:54:38-run_all_case.py-run_all_case.py-[line:41]-INFO-[日志信息]: ==================================2020-10-16 13:54:38===================================
Fri, 16 Oct 2020 13:54:39-run_all_case.py-test_Tripartite_interaction.py-[line:138]-INFO-[日志信息]: 开始执行脚本test_Tripartite_interaction:

Fri, 16 Oct 2020 13:54:59-run_all_case.py-run_all_case.py-[line:41]-INFO-[日志信息]: ==================================2020-10-16 13:54:59===================================
Fri, 16 Oct 2020 13:55:00-run_all_case.py-test_Tripartite_interaction.py-[line:138]-INFO-[日志信息]: 开始执行脚本test_Tripartite_interaction:

Fri, 16 Oct 2020 13:57:35-run_all_case.py-run_all_case.py-[line:41]-INFO-[日志信息]: ==================================2020-10-16 13:57:35===================================
Fri, 16 Oct 2020 13:57:35-run_all_case.py-test_Tripartite_interaction.py-[line:138]-INFO-[日志信息]: 开始执行脚本test_Tripartite_interaction:

Fri, 16 Oct 2020 13:57:43-run_all_case.py-test_Tripartite_interaction.py-[line:141]-INFO-[日志信息]: 添加银行卡账户画面
Fri, 16 Oct 2020 13:58:14-run_all_case.py-run_all_case.py-[line:41]-INFO-[日志信息]: ==================================2020-10-16 13:58:14===================================
Fri, 16 Oct 2020 13:58:15-run_all_case.py-test_Tripartite_interaction.py-[line:138]-INFO-[日志信息]: 开始执行脚本test_Tripartite_interaction:

Fri, 16 Oct 2020 13:58:22-run_all_case.py-test_Tripartite_interaction.py-[line:141]-INFO-[日志信息]: 添加银行卡账户画面
Fri, 16 Oct 2020 14:00:33-run_all_case.py-run_all_case.py-[line:41]-INFO-[日志信息]: ==================================2020-10-16 14:00:33===================================
Fri, 16 Oct 2020 14:00:34-run_all_case.py-test_Tripartite_interaction.py-[line:138]-INFO-[日志信息]: 开始执行脚本test_Tripartite_interaction:

Fri, 16 Oct 2020 14:00:42-run_all_case.py-test_Tripartite_interaction.py-[line:141]-INFO-[日志信息]: 添加银行卡账户画面
Fri, 16 Oct 2020 14:01:58-run_all_case.py-run_all_case.py-[line:41]-INFO-[日志信息]: ==================================2020-10-16 14:01:58===================================
Fri, 16 Oct 2020 14:01:59-run_all_case.py-test_Tripartite_interaction.py-[line:138]-INFO-[日志信息]: 开始执行脚本test_Tripartite_interaction:

Fri, 16 Oct 2020 14:02:06-run_all_case.py-test_Tripartite_interaction.py-[line:141]-INFO-[日志信息]: 添加银行卡账户画面
Fri, 16 Oct 2020 14:02:59-run_all_case.py-run_all_case.py-[line:41]-INFO-[日志信息]: ==================================2020-10-16 14:02:59===================================
Fri, 16 Oct 2020 14:02:59-run_all_case.py-test_Tripartite_interaction.py-[line:138]-INFO-[日志信息]: 开始执行脚本test_Tripartite_interaction:

Fri, 16 Oct 2020 14:03:07-run_all_case.py-test_Tripartite_interaction.py-[line:141]-INFO-[日志信息]: 添加银行卡账户画面
Fri, 16 Oct 2020 14:04:00-run_all_case.py-run_all_case.py-[line:41]-INFO-[日志信息]: ==================================2020-10-16 14:04:00===================================
Fri, 16 Oct 2020 14:04:00-run_all_case.py-test_Tripartite_interaction.py-[line:138]-INFO-[日志信息]: 开始执行脚本test_Tripartite_interaction:

Fri, 16 Oct 2020 14:04:07-run_all_case.py-test_Tripartite_interaction.py-[line:141]-INFO-[日志信息]: 添加银行卡账户画面
Fri, 16 Oct 2020 14:04:32-run_all_case.py-run_all_case.py-[line:41]-INFO-[日志信息]: ==================================2020-10-16 14:04:32===================================
Fri, 16 Oct 2020 14:04:33-run_all_case.py-test_Tripartite_interaction.py-[line:138]-INFO-[日志信息]: 开始执行脚本test_Tripartite_interaction:

Fri, 16 Oct 2020 14:04:57-run_all_case.py-test_Tripartite_interaction.py-[line:141]-INFO-[日志信息]: 添加银行卡账户画面
Fri, 16 Oct 2020 14:05:46-run_all_case.py-run_all_case.py-[line:41]-INFO-[日志信息]: ==================================2020-10-16 14:05:46===================================
Fri, 16 Oct 2020 14:05:46-run_all_case.py-test_Tripartite_interaction.py-[line:138]-INFO-[日志信息]: 开始执行脚本test_Tripartite_interaction:

Fri, 16 Oct 2020 14:05:54-run_all_case.py-test_Tripartite_interaction.py-[line:141]-INFO-[日志信息]: 添加银行卡账户画面
Fri, 16 Oct 2020 14:06:31-run_all_case.py-run_all_case.py-[line:41]-INFO-[日志信息]: ==================================2020-10-16 14:06:31===================================
Fri, 16 Oct 2020 14:06:31-run_all_case.py-test_Tripartite_interaction.py-[line:138]-INFO-[日志信息]: 开始执行脚本test_Tripartite_interaction:

Fri, 16 Oct 2020 14:06:39-run_all_case.py-test_Tripartite_interaction.py-[line:141]-INFO-[日志信息]: 添加银行卡账户画面
Fri, 16 Oct 2020 14:07:41-run_all_case.py-run_all_case.py-[line:41]-INFO-[日志信息]: ==================================2020-10-16 14:07:41===================================
Fri, 16 Oct 2020 14:07:42-run_all_case.py-test_Tripartite_interaction.py-[line:138]-INFO-[日志信息]: 开始执行脚本test_Tripartite_interaction:

Fri, 16 Oct 2020 14:07:49-run_all_case.py-test_Tripartite_interaction.py-[line:141]-INFO-[日志信息]: 添加银行卡账户画面
Fri, 16 Oct 2020 14:14:20-run_all_case.py-run_all_case.py-[line:41]-INFO-[日志信息]: ==================================2020-10-16 14:14:20===================================
Fri, 16 Oct 2020 14:14:21-run_all_case.py-test_Tripartite_interaction.py-[line:138]-INFO-[日志信息]: 开始执行脚本test_Tripartite_interaction:

Fri, 16 Oct 2020 14:14:28-run_all_case.py-test_Tripartite_interaction.py-[line:141]-INFO-[日志信息]: 添加银行卡账户画面
Fri, 16 Oct 2020 14:15:30-run_all_case.py-run_all_case.py-[line:41]-INFO-[日志信息]: ==================================2020-10-16 14:15:30===================================
Fri, 16 Oct 2020 14:15:30-run_all_case.py-test_Tripartite_interaction.py-[line:138]-INFO-[日志信息]: 开始执行脚本test_Tripartite_interaction:

Fri, 16 Oct 2020 14:15:49-run_all_case.py-test_Tripartite_interaction.py-[line:141]-INFO-[日志信息]: 添加银行卡账户画面
Fri, 16 Oct 2020 14:16:19-run_all_case.py-run_all_case.py-[line:41]-INFO-[日志信息]: ==================================2020-10-16 14:16:19===================================
Fri, 16 Oct 2020 14:16:19-run_all_case.py-test_Tripartite_interaction.py-[line:138]-INFO-[日志信息]: 开始执行脚本test_Tripartite_interaction:

Fri, 16 Oct 2020 14:16:42-run_all_case.py-test_Tripartite_interaction.py-[line:141]-INFO-[日志信息]: 添加银行卡账户画面
Fri, 16 Oct 2020 14:16:57-run_all_case.py-run_all_case.py-[line:41]-INFO-[日志信息]: ==================================2020-10-16 14:16:57===================================
Fri, 16 Oct 2020 14:16:57-run_all_case.py-test_Tripartite_interaction.py-[line:138]-INFO-[日志信息]: 开始执行脚本test_Tripartite_interaction:

Fri, 16 Oct 2020 14:17:34-run_all_case.py-run_all_case.py-[line:41]-INFO-[日志信息]: ==================================2020-10-16 14:17:34===================================
Fri, 16 Oct 2020 14:17:35-run_all_case.py-test_Tripartite_interaction.py-[line:138]-INFO-[日志信息]: 开始执行脚本test_Tripartite_interaction:

Fri, 16 Oct 2020 14:19:08-run_all_case.py-run_all_case.py-[line:41]-INFO-[日志信息]: ==================================2020-10-16 14:19:08===================================
Fri, 16 Oct 2020 14:19:09-run_all_case.py-test_Tripartite_interaction.py-[line:138]-INFO-[日志信息]: 开始执行脚本test_Tripartite_interaction:

Fri, 16 Oct 2020 14:19:25-run_all_case.py-test_Tripartite_interaction.py-[line:141]-INFO-[日志信息]: 添加银行卡账户画面
Fri, 16 Oct 2020 14:31:54-run_all_case.py-run_all_case.py-[line:41]-INFO-[日志信息]: ==================================2020-10-16 14:31:54===================================
Fri, 16 Oct 2020 14:31:54-run_all_case.py-test_Tripartite_interaction.py-[line:138]-INFO-[日志信息]: 开始执行脚本test_Tripartite_interaction:

Fri, 16 Oct 2020 14:32:48-run_all_case.py-run_all_case.py-[line:41]-INFO-[日志信息]: ==================================2020-10-16 14:32:48===================================
Fri, 16 Oct 2020 14:32:48-run_all_case.py-test_Tripartite_interaction.py-[line:139]-INFO-[日志信息]: 开始执行脚本test_Tripartite_interaction:

Fri, 16 Oct 2020 14:33:25-run_all_case.py-run_all_case.py-[line:41]-INFO-[日志信息]: ==================================2020-10-16 14:33:25===================================
Fri, 16 Oct 2020 14:33:47-run_all_case.py-run_all_case.py-[line:41]-INFO-[日志信息]: ==================================2020-10-16 14:33:47===================================
Fri, 16 Oct 2020 14:34:30-run_all_case.py-run_all_case.py-[line:41]-INFO-[日志信息]: ==================================2020-10-16 14:34:30===================================
Fri, 16 Oct 2020 14:36:11-run_all_case.py-run_all_case.py-[line:41]-INFO-[日志信息]: ==================================2020-10-16 14:36:11===================================
Fri, 16 Oct 2020 14:41:49-run_all_case.py-run_all_case.py-[line:41]-INFO-[日志信息]: ==================================2020-10-16 14:41:49===================================
Fri, 16 Oct 2020 14:43:02-run_all_case.py-run_all_case.py-[line:41]-INFO-[日志信息]: ==================================2020-10-16 14:43:02===================================
Fri, 16 Oct 2020 14:44:33-run_all_case.py-run_all_case.py-[line:41]-INFO-[日志信息]: ==================================2020-10-16 14:44:33===================================
Fri, 16 Oct 2020 14:45:08-run_all_case.py-run_all_case.py-[line:41]-INFO-[日志信息]: ==================================2020-10-16 14:45:08===================================
Fri, 16 Oct 2020 14:49:30-run_all_case.py-run_all_case.py-[line:41]-INFO-[日志信息]: ==================================2020-10-16 14:49:30===================================
Fri, 16 Oct 2020 14:53:50-run_all_case.py-run_all_case.py-[line:41]-INFO-[日志信息]: ==================================2020-10-16 14:53:50===================================
Fri, 16 Oct 2020 14:54:04-run_all_case.py-run_all_case.py-[line:41]-INFO-[日志信息]: ==================================2020-10-16 14:54:04===================================
Fri, 16 Oct 2020 14:54:19-run_all_case.py-run_all_case.py-[line:41]-INFO-[日志信息]: ==================================2020-10-16 14:54:19===================================
Fri, 16 Oct 2020 14:54:52-run_all_case.py-run_all_case.py-[line:41]-INFO-[日志信息]: ==================================2020-10-16 14:54:52===================================
Fri, 16 Oct 2020 14:55:07-run_all_case.py-run_all_case.py-[line:41]-INFO-[日志信息]: ==================================2020-10-16 14:55:07===================================
Fri, 16 Oct 2020 14:56:44-run_all_case.py-run_all_case.py-[line:41]-INFO-[日志信息]: ==================================2020-10-16 14:56:44===================================
Fri, 16 Oct 2020 14:57:10-run_all_case.py-run_all_case.py-[line:41]-INFO-[日志信息]: ==================================2020-10-16 14:57:10===================================
Fri, 16 Oct 2020 14:57:52-run_all_case.py-run_all_case.py-[line:41]-INFO-[日志信息]: ==================================2020-10-16 14:57:52===================================
Fri, 16 Oct 2020 14:58:36-run_all_case.py-run_all_case.py-[line:41]-INFO-[日志信息]: ==================================2020-10-16 14:58:36===================================
Fri, 16 Oct 2020 14:59:06-run_all_case.py-run_all_case.py-[line:41]-INFO-[日志信息]: ==================================2020-10-16 14:59:06===================================
Fri, 16 Oct 2020 15:00:24-run_all_case.py-run_all_case.py-[line:41]-INFO-[日志信息]: ==================================2020-10-16 15:00:24===================================
Fri, 16 Oct 2020 15:01:26-run_all_case.py-run_all_case.py-[line:41]-INFO-[日志信息]: ==================================2020-10-16 15:01:26===================================
Fri, 16 Oct 2020 15:02:42-run_all_case.py-run_all_case.py-[line:41]-INFO-[日志信息]: ==================================2020-10-16 15:02:42===================================
Fri, 16 Oct 2020 15:08:36-run_all_case.py-run_all_case.py-[line:41]-INFO-[日志信息]: ==================================2020-10-16 15:08:36===================================
Fri, 16 Oct 2020 15:08:36-run_all_case.py-test_Tripartite_interaction.py-[line:138]-INFO-[日志信息]: 开始执行脚本test_Tripartite_interaction:

Fri, 16 Oct 2020 15:50:30-run_all_case.py-run_all_case.py-[line:41]-INFO-[日志信息]: ==================================2020-10-16 15:50:30===================================
Fri, 16 Oct 2020 15:50:31-run_all_case.py-test_Tripartite_interaction.py-[line:138]-INFO-[日志信息]: 开始执行脚本test_Tripartite_interaction:

Fri, 16 Oct 2020 15:51:36-run_all_case.py-run_all_case.py-[line:41]-INFO-[日志信息]: ==================================2020-10-16 15:51:36===================================
Fri, 16 Oct 2020 15:51:51-run_all_case.py-test_businessInfoReg.py-[line:144]-INFO-[日志信息]: 企业认证画面
Fri, 16 Oct 2020 15:52:38-run_all_case.py-run_all_case.py-[line:41]-INFO-[日志信息]: ==================================2020-10-16 15:52:38===================================
Fri, 16 Oct 2020 15:52:58-run_all_case.py-test_businessInfoReg.py-[line:144]-INFO-[日志信息]: 企业认证画面
Fri, 16 Oct 2020 15:59:06-run_all_case.py-run_all_case.py-[line:41]-INFO-[日志信息]: ==================================2020-10-16 15:59:06===================================
Fri, 16 Oct 2020 15:59:33-run_all_case.py-test_login.py-[line:103]-INFO-[日志信息]: PC 端进行密码修改
Fri, 16 Oct 2020 15:59:33-run_all_case.py-test_login.py-[line:105]-INFO-[日志信息]: 小程序个人实名认证页面
Fri, 16 Oct 2020 16:01:53-run_all_case.py-run_all_case.py-[line:41]-INFO-[日志信息]: ==================================2020-10-16 16:01:53===================================
Fri, 16 Oct 2020 16:02:17-run_all_case.py-test_businessInfoReg.py-[line:144]-INFO-[日志信息]: 企业认证画面
Fri, 16 Oct 2020 16:05:32-run_all_case.py-run_all_case.py-[line:41]-INFO-[日志信息]: ==================================2020-10-16 16:05:32===================================
Fri, 16 Oct 2020 16:08:55-run_all_case.py-run_all_case.py-[line:41]-INFO-[日志信息]: ==================================2020-10-16 16:08:55===================================
Fri, 16 Oct 2020 16:10:28-run_all_case.py-run_all_case.py-[line:41]-INFO-[日志信息]: ==================================2020-10-16 16:10:28===================================
Fri, 16 Oct 2020 16:11:17-run_all_case.py-run_all_case.py-[line:41]-INFO-[日志信息]: ==================================2020-10-16 16:11:17===================================
Fri, 16 Oct 2020 16:12:05-run_all_case.py-run_all_case.py-[line:41]-INFO-[日志信息]: ==================================2020-10-16 16:12:05===================================
Fri, 16 Oct 2020 16:12:33-run_all_case.py-test_businessInfoReg.py-[line:144]-INFO-[日志信息]: 企业认证画面
Fri, 16 Oct 2020 16:13:03-run_all_case.py-run_all_case.py-[line:41]-INFO-[日志信息]: ==================================2020-10-16 16:13:03===================================
Fri, 16 Oct 2020 16:14:40-run_all_case.py-run_all_case.py-[line:41]-INFO-[日志信息]: ==================================2020-10-16 16:14:40===================================
Fri, 16 Oct 2020 16:15:13-run_all_case.py-run_all_case.py-[line:41]-INFO-[日志信息]: ==================================2020-10-16 16:15:13===================================
Fri, 16 Oct 2020 16:15:56-run_all_case.py-run_all_case.py-[line:41]-INFO-[日志信息]: ==================================2020-10-16 16:15:56===================================
Fri, 16 Oct 2020 16:16:04-run_all_case.py-test_businessInfoReg.py-[line:144]-INFO-[日志信息]: 企业认证画面
Fri, 16 Oct 2020 16:16:44-run_all_case.py-run_all_case.py-[line:41]-INFO-[日志信息]: ==================================2020-10-16 16:16:44===================================
Fri, 16 Oct 2020 16:17:14-run_all_case.py-test_login.py-[line:103]-INFO-[日志信息]: PC 端进行密码修改
Fri, 16 Oct 2020 16:17:14-run_all_case.py-test_login.py-[line:105]-INFO-[日志信息]: 小程序个人实名认证页面
Fri, 16 Oct 2020 16:19:00-run_all_case.py-run_all_case.py-[line:41]-INFO-[日志信息]: ==================================2020-10-16 16:19:00===================================
Fri, 16 Oct 2020 16:19:35-run_all_case.py-test_businessInfoReg.py-[line:144]-INFO-[日志信息]: 企业认证画面
Fri, 16 Oct 2020 16:19:42-run_all_case.py-test_backStage_examine.py-[line:24]-INFO-[日志信息]: 开始执行脚本test_backstage_examine:

Fri, 16 Oct 2020 16:20:00-run_all_case.py-test_backStage_authentication.py-[line:173]-INFO-[日志信息]: 开始执行脚本test_backStageActCreate:

Fri, 16 Oct 2020 16:25:29-run_all_case.py-run_all_case.py-[line:41]-INFO-[日志信息]: ==================================2020-10-16 16:25:29===================================
Fri, 16 Oct 2020 16:25:29-run_all_case.py-test_businessInfoReg.py-[line:144]-INFO-[日志信息]: 企业认证画面
Fri, 16 Oct 2020 16:25:53-run_all_case.py-run_all_case.py-[line:41]-INFO-[日志信息]: ==================================2020-10-16 16:25:53===================================
Fri, 16 Oct 2020 16:25:59-run_all_case.py-test_businessInfoReg.py-[line:144]-INFO-[日志信息]: 企业认证画面
Fri, 16 Oct 2020 16:26:34-run_all_case.py-run_all_case.py-[line:41]-INFO-[日志信息]: ==================================2020-10-16 16:26:34===================================
Fri, 16 Oct 2020 16:27:09-run_all_case.py-run_all_case.py-[line:41]-INFO-[日志信息]: ==================================2020-10-16 16:27:09===================================
Fri, 16 Oct 2020 16:27:38-run_all_case.py-run_all_case.py-[line:41]-INFO-[日志信息]: ==================================2020-10-16 16:27:38===================================
Fri, 16 Oct 2020 16:28:30-run_all_case.py-run_all_case.py-[line:41]-INFO-[日志信息]: ==================================2020-10-16 16:28:30===================================
Fri, 16 Oct 2020 16:28:31-run_all_case.py-test_businessInfoReg.py-[line:144]-INFO-[日志信息]: 企业认证画面
Fri, 16 Oct 2020 16:41:35-run_all_case.py-run_all_case.py-[line:41]-INFO-[日志信息]: ==================================2020-10-16 16:41:35===================================
Fri, 16 Oct 2020 16:41:42-run_all_case.py-test_businessInfoReg.py-[line:144]-INFO-[日志信息]: 企业认证画面
Fri, 16 Oct 2020 16:42:08-run_all_case.py-run_all_case.py-[line:41]-INFO-[日志信息]: ==================================2020-10-16 16:42:08===================================
Fri, 16 Oct 2020 16:42:32-run_all_case.py-test_businessInfoReg.py-[line:144]-INFO-[日志信息]: 企业认证画面
Fri, 16 Oct 2020 16:42:58-run_all_case.py-run_all_case.py-[line:41]-INFO-[日志信息]: ==================================2020-10-16 16:42:58===================================
Fri, 16 Oct 2020 16:59:30-run_all_case.py-run_all_case.py-[line:41]-INFO-[日志信息]: ==================================2020-10-16 16:59:30===================================
Fri, 16 Oct 2020 17:01:28-run_all_case.py-run_all_case.py-[line:41]-INFO-[日志信息]: ==================================2020-10-16 17:01:28===================================
Fri, 16 Oct 2020 17:01:48-run_all_case.py-test_login.py-[line:104]-INFO-[日志信息]: PC 端进行密码修改
Fri, 16 Oct 2020 17:01:48-run_all_case.py-test_login.py-[line:106]-INFO-[日志信息]: 小程序个人实名认证页面
Fri, 16 Oct 2020 17:02:18-run_all_case.py-test_businessInfoReg.py-[line:144]-INFO-[日志信息]: 企业认证画面
Fri, 16 Oct 2020 17:04:23-run_all_case.py-run_all_case.py-[line:41]-INFO-[日志信息]: ==================================2020-10-16 17:04:23===================================
Fri, 16 Oct 2020 17:04:45-run_all_case.py-test_login.py-[line:104]-INFO-[日志信息]: PC 端进行密码修改
Fri, 16 Oct 2020 17:04:45-run_all_case.py-test_login.py-[line:106]-INFO-[日志信息]: 小程序个人实名认证页面
Fri, 16 Oct 2020 17:08:22-run_all_case.py-run_all_case.py-[line:41]-INFO-[日志信息]: ==================================2020-10-16 17:08:22===================================
Fri, 16 Oct 2020 17:08:44-run_all_case.py-test_login.py-[line:104]-INFO-[日志信息]: PC 端进行密码修改
Fri, 16 Oct 2020 17:08:44-run_all_case.py-test_login.py-[line:106]-INFO-[日志信息]: 小程序个人实名认证页面
Fri, 16 Oct 2020 17:11:18-run_all_case.py-run_all_case.py-[line:41]-INFO-[日志信息]: ==================================2020-10-16 17:11:18===================================
Fri, 16 Oct 2020 17:11:40-run_all_case.py-test_login.py-[line:104]-INFO-[日志信息]: PC 端进行密码修改
Fri, 16 Oct 2020 17:11:40-run_all_case.py-test_login.py-[line:106]-INFO-[日志信息]: 小程序个人实名认证页面
Fri, 16 Oct 2020 17:12:13-run_all_case.py-test_businessInfoReg.py-[line:144]-INFO-[日志信息]: 企业认证画面
Fri, 16 Oct 2020 17:14:02-run_all_case.py-run_all_case.py-[line:41]-INFO-[日志信息]: ==================================2020-10-16 17:14:02===================================
Fri, 16 Oct 2020 17:14:24-run_all_case.py-test_login.py-[line:104]-INFO-[日志信息]: PC 端进行密码修改
Fri, 16 Oct 2020 17:14:24-run_all_case.py-test_login.py-[line:106]-INFO-[日志信息]: 小程序个人实名认证页面
Fri, 16 Oct 2020 17:15:03-run_all_case.py-test_businessInfoReg.py-[line:144]-INFO-[日志信息]: 企业认证画面
